
setup_vision = yes
government = monarchy #previously Fadevych
add_government_reform = feudalism_reform
government_rank = 1
primary_culture = sarda
religion = ynn_river_worship
technology_group = tech_ynnic
capital = 2858

1000.1.1 = { set_estate_privilege = estate_mages_organization_guilds }

1406.1.1 = {
	monarch = {
		name = "Devynn I"
		dynasty = "Hradavych"
		birth_date = 1386.3.6
		death_date = 1464.2.1
		adm = 3
		dip = 3
		mil = 2
	}
	heir = {
		name = "Celavyr"
		monarch_name = "Celavyr II"
		dynasty = "Hradavych"
		birth_date = 1401.4.4
		death_date = 1480.6.6
		claim = 95
		adm = 3
		dip = 3
		mil = 4
	}
}