
#Alenic Reach
549 = "Vaakradenu"
723 = "Bayvek"

#Ourdia
506 = "Ciernhibin"
507 = "Stargozdu"
509 = "Mestikisorotin"
511 = "Zelenlesa"
515 = "Bielovcimestin"

#Bahar
527 = "Zlatikonu"
529 = "Zehlezigorin"
534 = "Volnimestin"
535 = "Tenkar"
537 = "Medirudu"
544 = "Nobdenu"
549 = "Vaakradenu"
649 = "Vhodnetrebu"
650 = "Gorihradin"
652 = "Sedovcipastin"
654 = "Ur-Monkande"