
natives_empty = { #this is also the default look
	graphical_culture = inuitgfx
	color = { 0 255 0 }
	icon = 1
	
	unit = north_aelantiri_1_tribal_clubmen
	
	provinces = {
		#Cannor
		1001 421
		#Venail
		1 93 94 127
		#Salahad Isles
		5790 5791 5792 6128
		#Endralliande
		931 930 929 928 934 942 932 933 935 936 937 938 939 940 941 943 944 945 946 947 948 1002 1003 1004 1005 1006 1007 1008 1009 1010 1011 2126 2230 2788 2828
		#Ravenous Isle
		1070 1069 1060 1061 1059 1062 1065 1064 1107 1068 1067 1066 1108 1063 1072 2137
		#Ruined Isles
		1071 1073 1074 2091 1056 1057 2124 2093 1055 1058 1221 1075 1076 1077 1078 1079 1080 1082 1081 1083 1084 2125 1085 1086 1087 1101 1103 1088 1089 1090 1091 1092 1093 1096 1094 1095 1097 1098 1099 1102 1104 1105 1106 1053 1052 1054 1017 2135
		#North Ruined Isles
		926 927 925 924 949 950 951
		#Dalaire
		2787 1205
		#Eordand
		2062 2063 2825
		#Haraf
		2156
		#Torn Sea
		2151 2152 2153 2154 2155 2157 2158 2169 2170 2161 2172 2165 2166 2160 2163 2162 2164 2168 2167 2174 2173 2171
		#Soruin
		1100
		#East Effelai
		2241 6503
		#Turtleback
		2253 2254 2255 2256 2259 2260 2257 2262 2261 2258 2263
		#Severed Coast
		2321 2320 2319 2325 2324 2323 2322 2317 2316 2318 2315 2311 2313 2312 2314 2310 2328 2327 2326
		#Taychend
		2513
		#Chendhya
		2607 2605 2604
		#Devand
		2597 2598 2599 2600
		#Post-spoiler Triunic Lands
		5299 5300 5301 5302 5305 5297 5298 5290 5240 5289 5295 5296 5306 5291 5292 5293 5294 5278 5279 5286 5287 5288 5284 5285 5283 5280 5281 5282 5304 5274 5275 5276 5277 5270 5271 5272 5273 5267 5268 5269 5261 5262 5263 5264 5265 5266 5257 5258 5259 5260 5252 5253 5254 5255 5256 5249 5250 5251 5248 5245 5246 5247 5242 5243 5244 5235 5236 5241 5238 5239 5237 5232 5233 5234 5230 5231 5229 5226 5227 5228 5224 5225
	}
}

natives_kwineh = {
	graphical_culture = northamericagfx
	color = { 0 255 0 }
	icon = 2
	
	unit = north_aelantiri_1_tribal_clubmen
	
	provinces = {
		#Bloodgroves
		1117 1124 2450 2548 1996 1114 1116 1115 2557 2208 1113 2283 1111 1110 2437 1998 1999 1014 1013 1015 1016 
	}
}

natives_boek = {
	graphical_culture = northamericagfx
	color = { 0 255 0 }
	icon = 3
	
	unit = north_aelantiri_1_tribal_clubmen
	
	provinces = {
		#Trollsbay
		1049 1048 1047 1046 1037 1035 1036 1033 1034 1038 1039 1043 1044 1042 1041 1040 1032 1030 1029 1028 1031 1027 1026 1025 1024 1023 1021 1020 1019 1051 1018 1022
		1992 1871 1991 2449 1959 1127 1126 1129 1128 2609 1961 1132 1131 2476 1956 2563 1873 1901 2685 1867 2410 1953 1952 1958 1954 1880 2614 1869
	}
}

natives_cheshoshi = {
	graphical_culture = northamericagfx
	color = { 0 255 0 }
	icon = 4
	
	unit = north_aelantiri_1_tribal_clubmen
	
	provinces = {
		#Trollsbay
		1045 1050 1866 1933 1934 1935 1936 1937 1938 1943 1949 2741
		
		#Reapers Coast
		1941 1930 1940 1865 1951 1925 1939 1942 1948 1944 1955 1947 1876 1945 1946 1870 1868 1872 1960 1130
	}
}

natives_soruinic = {
	graphical_culture = southamericagfx
	color = { 255 0 0 }
	icon = 5
	
	unit = south_aelantiri_1_tribal_spearmen
	
	provinces = {	
		#Soruin
		1306 2175 2177 2176 2178 2180 2199 2179 2190 2191 2192 2186 2187 2181 2182 2197 2198 2359 2189 2188 2193 2195 2196 2201 2202 2203 2204 2205 2183 2184
		
		#West Effelai
		2355 2394 2357 2356 2358 
	}
}

natives_dolindhan = {
	graphical_culture = easterngfx
	color = { 0 255 0 }
	icon = 6
	
	unit = ynnic_1_river_wardens
	
	provinces = {
		#Dolindha
		1165 1166 1167 1168 1169 1170 1171 1172 1180 1180 1182 1186 1188 1755 1819 1820 2488 2742 2808 2809 2812 2813 2814 2837 2838 2839 2840 2862
	}
}

natives_sarda = {
	graphical_culture = easterngfx
	color = { 0 255 0 }
	icon = 7
	
	unit = ynnic_1_treehouse_skirmishers
	
	provinces = {
		#Sarda
		1133 1134 1135 1136 1137 1138 1139 1140 1141 1142 1143 1144 1148 1665 1821 1822 1825 1826 1827 1830 1833 1833 1877 1878 2810 2816 2858 2859 2861
	}
}

natives_rzentur = {
	graphical_culture = easterngfx
	color = { 0 255 0 }
	icon = 8
	
	unit = ynnic_1_buycev
	
	provinces = {
		#Rzenta
		1189 1190 1191 1192 1193 1194 1756 1757 1758 1759 1766 1792 6552
		#Epednan Expanse
		1815 1816 2843
	}
}

natives_old_rzentur = {
	graphical_culture = northamericagfx
	color = { 0 255 0 }
	icon = 9
	
	unit = ynnic_1_buycev
	
	provinces = {
		#Rzenta
		1754 1760 1761 1762 1763 1764 1765 1767 1768 1773 1774 2569 2662 2749 
		#Broken Isles
		1751 1752 1753 1769 1772 1989
	}
}

natives_veykodan = {
	graphical_culture = northamericagfx
	color = { 0 255 0 }
	icon = 10
	
	unit = ynnic_1_buycev
	
	provinces = {
		#Sarda
		1145 1149 1155 2757 2841
		#Veykoda
		1146 1147 1150 1151 1152 1153 1154 1156 1157 1158 1159 1160 1161 1162 1163 1164 2606 2615 2781 2783 2784 2807 2815 2817 2818 2819 2836 2844
	}
}

natives_harafe = {
	graphical_culture = northamericagfx
	color = { 0 255 0 }
	icon = 11
	
	unit = north_aelantiri_1_tribal_clubmen
	
	provinces = {
		#Haraf
		2092 2097 2112 2113 2115 2127 2129 2130 2133 2138 2822 2823 2824 2826 2827
	}
}

natives_epednar = {
	graphical_culture = northamericagfx
	color = { 0 255 0 }
	icon = 12
	
	unit = north_aelantiri_1_expanse_riders
	
	provinces = {
		#Haraf
		1950
		#Sarda
		1828 1829 1831 1832 1834 1835 1837 1838 1839 1840 1841 1843 1844 1858 2857
		#Dolindha
		1818 1823 1824 2842
		#Epednan Expanse
		1808 1810 1836 1842 1845 1846 1847 1848 1848 1849 1850 1851 1852 1853 1854 1855 1856 1857 1859 1860 1861 1862 1863 1864 1879 1881 1884 1931 1957 2729 2854 2855 2856 1817
		#Rzenta
		2821
	}
}

natives_mayte = {
	graphical_culture = northamericagfx
	color = { 0 255 0 }
	icon = 13
	
	unit = north_aelantiri_1_tribal_clubmen
	
	provinces = {
		#Haraf
		2108 2064 2104 2071 2067 2106 2066 2094 2065 2103 2095 2107 2069 2102 2096 2072 2070 2068 2105 2073
	}
}

natives_kooras = {
	graphical_culture = northamericagfx
	color = { 0 255 0 }
	icon = 14
	
	unit = north_aelantiri_1_tribal_clubmen
	
	provinces = {
		#Haraf
		2088 2086 2141 2143 2142 2149 2146 2145 2147 2083 2082 2144 2122 2123 2081 2080 2121 2079 2078 2076
	}
}

natives_teira = {
	graphical_culture = inuitgfx
	color = { 0 255 0 }
	icon = 15
	
	unit = north_aelantiri_1_tribal_clubmen
	
	provinces = {
		#Dalaire
		1206 2849 2846 2852 1201 1226 1207 2847 1203 1209 1232 1219 1233 1220 1222 2847 1202 2850 2850 2845 1231 1204 1215 1213 2851 1223 1214 1211 1210 1212 1229 1225 1208
	}
}

natives_taychendi = {
	graphical_culture = southamericagfx
	color = { 0 255 0 }
	icon = 16
	
	unit = taychendi_1_taychendi_spearmen
	
	provinces = {
		#Kalavendhi
		2495 2508 2494 2550 2506 2496 2493 2330 2510 2491 2552 2502 2492 2505 2509 6559 2500 2511 2549 2501 2499 2497 2498 2504 2483 2481 2484
		#Thekvrystana
		2562 2536 2560 2523 2329 2526 2522 2519 2532 2534 2533 2559 2537 2520 2561 2564 2541
		2521 2558 2518 2515 2517 2524 2525 2535
		#Yodhanpir
		2551 2543 2553 2556 2544 2531 2545 2514 2530 2540 2546 2542 2527 2555 2529 2547 2528 2539 2554
	}
}

natives_larankar = {
	graphical_culture = southamericagfx
	color = { 0 255 0 }
	icon = 17
	
	unit = taychendi_1_taychendi_spearmen
	
	provinces = {
		#Larankar Highlands
		2477 2468 2478 2489 2572 2470 2485 2487 2469 1662 2464 2475 2480 2473 2486 2472 2474 2571 2479 2490 2465 2466 2570
	}
}

natives_kheionai = {
	graphical_culture = kheionaigfx
	color = { 0 255 0 }
	icon = 18
	
	unit = kheionai_1_kheionai_spearmen
	
	provinces = {
		#Alecand
		2681 2717 2718 2719 2720 2721 2722 2724 2725 2726 2727 2728 2730 2731 2732 2733 2734 2735 2736 2737 2738 2739 2743 2744 2745 2746 2759 2761 2762 2763 2764 2765 2767 2768 2769 2770 2771 2772 2773 2774 2775 2776 2777 2778
		#Devand
		2595 2596 2616 2620 2621 2625 2626 2641 2668 2669 2670 2672 2673 2674 2676 2677 2680 2684 2686 2690 2695 2698 2708 2716 2750 2720 2721 2722 2723 2747 2750
	}
}

natives_eltikan = {
	graphical_culture = southamericagfx
	color = { 0 255 0 }
	icon = 19
	
	unit = south_aelantiri_1_tribal_spearmen
	
	provinces = {
		#Alecand
		2748 2751 2752 2753 2754 2755 2756 2758 2760 2766 2779 2780 2782 2785 2786
	}
}

natives_mteibhar = {
	graphical_culture = southamericagfx
	color = { 0 255 0 }
	icon = 20
	
	unit = south_aelantiri_1_tribal_spearmen
	
	provinces = {
		#Devand
		2658 2659 2660 2661 2663 2664 2665 2666 2667 2646 2647 2648 2649 2627 2628 2629 2631 2632 2637 2638 2639
	}
}

natives_basobhar = {
	graphical_culture = southamericagfx
	color = { 0 255 0 }
	icon = 21
	
	unit = south_aelantiri_1_tribal_spearmen
	
	provinces = {
		#Devand
		2617 2618 2619 2622 2623 2624 2630 2633 2634 2635 2636 2640 2642 2643 2645 2683 2687 2688 2689 2692 2693 2694 2691 2703 2704 2712 2714 2715 2650 2651 2644 2671 2675 2678 2679 2682 2696 2697 2699 2700 2701 2702 2705 2706 2707 2709 2710 2711 2713
	}
}

natives_chendhyan = {
	graphical_culture = southamericagfx
	color = { 0 255 0 }
	icon = 22
	
	unit = taychendi_1_larankar_hill_cavalry
	
	provinces = {
		#Chendhya
		2567 2589 2578 2579 2584 2574 2576 2566 2654 2611 2577 2603 2652 2568 2612 2565 2653 2602 2592 2655 2583 2656 2594 2581 2601 2591 2613 2590 2588 2582 2657 2587 2610 2575 2573 2585 2580 2593 2586
	}
}

natives_effe = {
	graphical_culture = northamericagfx
	color = { 0 255 0 }
	icon = 23
	
	unit = south_aelantiri_1_tribal_spearmen
	
	provinces = {
		#West Effelai
		2348 2349 2350 2351 2352 2353 2354 2215
		#South Effelai
		2363 2364 2365
	}
}

natives_laii = {
	graphical_culture = northamericagfx
	color = { 0 255 0 }
	icon = 24
	
	unit = south_aelantiri_1_tribal_spearmen
	
	provinces = {
		#South Effelai
		2375 2376 2342 2341 2339 2340
		#Dry Coast
		2345 2512 2335 2336
		#Taychend
		2507 2463 2460 2461 2462 2467
	}
}

natives_onoii = {
	graphical_culture = northamericagfx
	color = { 0 255 0 }
	icon = 25
	
	unit = south_aelantiri_1_tribal_spearmen
	
	provinces = {
		#Dry Coast
		1812 1814 2346 2302 2304 2333 2337 2307 2297 2301 2296 2331 2295 2298 2300 2309 2303 2299 2294 2332 2305 2308 2306 2347 2338
	}
}

natives_parura = {
	graphical_culture = northamericagfx
	color = { 0 255 0 }
	icon = 26
	
	unit = south_aelantiri_1_tribal_spearmen
	
	provinces = {
		#Leechdens
		2185 2206 2207 2210 2211 2212 2213 2214 2216 2217 2218 2219 2220 2221 2225 2226 2227 2265 2282 2395
		#East Effelai
		2284 2235 2236 2285
	}
}

natives_laii_shroom = {
	graphical_culture = northamericagfx
	color = { 0 255 0 }
	icon = 27
	
	unit = south_aelantiri_1_tribal_spearmen
	
	provinces = {
		#Mushroom Forest
		2367 2368 2369 2370 2371 2372 2373 2374 2379 2380 2381
	}
}

natives_thamvoi = {
	graphical_culture = northamericagfx
	color = { 0 255 0 }
	icon = 28
	
	unit = south_aelantiri_1_tribal_spearmen
	
	provinces = {
		#East Effelai
		2246 2806 2281 2242 2252 2249 2268 2293 2280 2239 2804 2247 2292 2244 2243 2273 2270 2237 2288 2238 2291 2245 2269 2290 2248 2289 2271 2240 2803 2286 2805 2287 2272 2250
	}
}

natives_seedthrall = {
	graphical_culture = northamericagfx
	color = { 0 255 0 }
	icon = 29
	
	unit = orcish_1_the_horde
	
	provinces = { 
		#South Effelai
		2266 2343 2264 2267 2378 2377 2366  
		#East Effelai
		2274 2275 2276 2277 2279 2278
		#Dry Coast
		2344
	}
}

natives_selphereg = {
	graphical_culture = southamericagfx
	color = { 0 255 0 }
	icon = 30
	
	unit = eordand_1_ruin_garrison
	
	provinces = { 
		#Eordand
		2036 2026 1997 2004 2007 2008 2009 2010 2018 2019 2024 2025 2031 2032
	}
}

natives_caamas = {
	graphical_culture = southamericagfx
	color = { 0 255 0 }
	icon = 31
	
	unit = eordand_1_ruin_garrison
	
	provinces = { 
		#Eordand
		2023 2020 2041 2045 2048 2051 2052 2053 2021 2022 2028 2030 2035 2037 2038
	}
}

natives_peitar = {
	graphical_culture = southamericagfx
	color = { 0 255 0 }
	icon = 32
	
	unit = eordand_1_ruin_garrison
	
	provinces = {
		#Eordand
		2503 1967 6255 6256 6251 6557 6257 6554 6555 6556 6254 6250 6252 6253 6246 6247 6248 6249 6241 6242 6243 6244 6245 2040 2042 2043 2044 2046 2047 2049 2003 2006 2012 2014 2017 2027 2029 2033 2034 2039 1994
	}
}

natives_tuathak = {
	graphical_culture = southamericagfx
	color = { 0 255 0 }
	icon = 33
	
	unit = eordand_1_ruin_garrison
	
	provinces = { 
		#Eordand
		2005 2159 2050 2011 2013 2015 2016 1962 1964 1965 1969 1988 1990 1993 1875 1809 1771 1118 1125
	}
}

natives_snecboth = {
	graphical_culture = inuitgfx
	color = { 0 255 0 }
	icon = 34
	
	unit = eordand_1_ruin_garrison
	
	provinces = {
		#Eordand
		1974 1982 1984 2797 2002 1963 1966 1968 1970 1971 1972 1973 1978 1979 1981 1983 1985 1986 1987 1813 1775 1776 1777 1778 1780 1109 1112 1122
	}
}

natives_fograc = {
	graphical_culture = southamericagfx
	color = { 0 255 0 }
	icon = 35
	
	unit = eordand_1_ruin_garrison
	
	provinces = {
		#Eordand
		2058 2054 2055 2056 2057 2059 2060 2061
	}
}

natives_bloodfeeder = {
	graphical_culture = northamericagfx
	color = { 0 255 0 }
	icon = 36
	
	unit = orcish_1_the_horde
	
	provinces = {
		#Bloodgroves
		1012 1119 1120 1121 1123 1995 2459 2538
	}
}

natives_silent_watchers = {
	graphical_culture = northamericagfx
	color = { 0 255 0 }
	icon = 37
	
	unit = north_aelantiri_1_tribal_clubmen
	
	provinces = {
		#Haraf
		2098 2099 2100 2101 2109 2110 2111 2114 2116 2074 2117 2075 2118 2128 2131 2119 2120 2077 2132 2134 2136 2140 2139 2087 2089 2090 2150 2148 2084 2085
	}
}

natives_cursed_ones = {
	graphical_culture = northamericagfx
	color = { 0 255 0 }
	icon = 38
	
	unit = orcish_1_the_horde
	
	provinces = {
		#Dalaire
		2853 1238 1237 1241 1217 1216 1218 2848 1236 1224 1200 1239 1240
		
		#Forest of the Cursed Ones
		1242 1176 1748 1197 1177 1318 1745 2482 1742 1181 1184 1175 1744 1199 1179 1747 1196 2820 1235 1886 1178 1183 1749 1198 1185 1174 1743 1750
		
		#Broken Isles
		1746
	}
}

natives_leechmen = {
	graphical_culture = northamericagfx
	color = { 0 255 0 }
	icon = 39
	
	unit = orcish_1_the_horde
	
	provinces = {
		#Leechdens
		2209 2222 2223 2224 2228 2229 2231 2232 2233 2234
	}
}

natives_ice_sleepers = {
	graphical_culture = inuitgfx
	color = { 0 255 0 }
	icon = 40
	
	unit = orcish_1_the_horde
	
	provinces = {
		#Dalaire
		2796 2795 2793 2794 2792 2791 2790 2789
		#Broken Isles
		1230 1227 1228 1234 1243 1244 1245 1246 1247 1248 1249 1273 1770 2516 2798 2799 2800 2801 2802
	}
}

natives_doos = {
	graphical_culture = southamericagfx
	color = { 127 255 255 }
	icon = 41
	
	unit = south_aelantiri_1_tribal_spearmen
	
	provinces = {
		#Amadia
		2400 2399 2398 2397 2396 2391 2392 2393 2390 2405 2417 2446 2406 2413 2412 2411 2409 2407 2408 2402 2404 2418 2419 2420 2414 2415 2431 2445 2423 2443 2427 2444 2428 2424 2429 2430 2433 2434 2436
	}
}

natives_doosun = {
	graphical_culture = southamericagfx
	color = { 127 255 255 }
	icon = 42
	
	unit = south_aelantiri_1_tribal_spearmen
	
	provinces = {
		#Amadia
		2360 2361 2362 2389 2388 2386 2387 2383 2384 2401 2403 2421 2422 2439 2432 2441 2447 2440 2435 2438 2442 2448 2451 2452 2453 2454 2416 2385 2458 2457 1195 2455 2382 2456
	}
}

natives_wood_elves = {
	graphical_culture = northamericagfx
	color = { 127 255 255 }
	icon = 43
	
	unit = wood_1_wood_archer
	
	provinces = {
		#Deepwoods
		6258 3058 3057 3054 3051 3049 3048 3033 3025 3024 3020 3021 3017 3018 3011 3012 3006 3004 3005
	}
}

natives_centaurs = { #Forbidden Lands
	graphical_culture = nomadgfx
	color = { 127 255 255 }
	icon = 44
	
	unit = centaur_1_horde
	
	provinces = {
		#Forbidden Lands
		5001 5004 5013 5014 5015 5016 5023 
		5044 5045 5046 5047 5048 5049 5050 5051 5052 5053 
		5054 5055 5056 5057 5058 5059 5060 5061 5062 5063 5064 5065 5066 5067 5068 5069 5070 5071 5072 5073 5074 5075 5076 5077 5078 5079 5080 
		5081 5082 5083 5084 5085 5086 5087 5088 5089 5090 5091 5092 5093 5094 5095 5096 5097 5098 5099 5100 5101 5102 5103 5104 5105 5106 5107 
		5108 5109 5110 5111 5112 5113 5114 5115 5116 5117 5118 5119 5120 5121 5122 5123 5124 5125 5126 5127 5128 5129 5130 5131 5132 5133 5134 
		5135 5136 5137 5138 5139 5140 5141 5142 5143 5144 5145 5146 5147 5148 5149 5150 5151 5152 5153 5154 5155 5156 5157 5158 5159 5160 5161 
		5162 5163 5164 5165 5166 5167 5168 5169 5170 5171 5172 5173 5174 5175 5176 5177 5178 5179 5180 5181 5182 5183 5184 5185 5186 5187 5188 
		5189 5190 5191 5192 5193 5194 5195 5196 5197 5198 5199 5200 5201 5202 5203 5204 5205 5206 5207 5208 5209 5210 5211 5212 5213 5214 5215 
		5216 5217 5218 5219 5220 5221 5222 5223   
		5303
	}
}

natives_farrani = {
	graphical_culture = westerngfx
	color = { 0 255 255 }
	icon = 45
	
	unit = cannorian_1_medieval_infantry
	
	provinces = {
		#Valefort
		780
	}
}

natives_cannorian_human = {
	graphical_culture = westerngfx
	color = { 0 255 255 }
	icon = 46
	
	unit = cannorian_1_medieval_infantry
	
	provinces = {
		
		#Forlorn Vale
		248 257
		
		#Alenic Reach
		701 707 709 712 713 714 715 717 718
		
		#Escann
		776 769 765 757 835 787 865 820 809 750 808 802 817 866 874 827
		
		#Cannor
		2 3 4 5 6 7 8 9 10 11 12 13 14 15 16 17 18 19 20 21 22 23 24 25 26 27 28 29 30 31 32 33 34 35 36 37 38 39 40 41 42 43
		44 45 46 47 48 49 50 51 52 53 54 55 56 57 58 59 60 61 63 66 67 68 69 70 71
		72 73 74 75 76 77 78 79 80 81 82 83 84 85 86 128 129 130 131 132 133 134 165 166
		87 88 89 90 91 92 95 96 97 98 99 100
		101 102 103 104 105 106 107 108 109 110 111 112 113 114 115 116 117 118 119 120 121
		122 123 124 125 126 135 136 137 138 139 140 141 142 143 144 145 146 147 148 149 150 151 152 153 154 155
		156 157 158 159 160 161 162 163 164 167 168 169 170 171 172 173 174 175 176 177 178 179 180 181 182 183 184 185 186 187
		188 189 190 191 192 193 194 195 196 197 198 199 200 201 202 203 204 205 206 207 208 209 210 211 212 213 214 215 216 217 218 219 220 221 222 223 224 225 226
		227 228 333 233 234 235 236 237 238 239 240 241 242 243 244 245 246 247 249 250 251 252 253 254 255 256 258 259 260 261 262 263 264 265 266 267 268 269 270 271 272 273 274
		275 276 277 278 279 280 281 282 283 284 285 286 287 288 289 290 291 292 293 294 295 296 297 298 299 300 301 302
		303 304 305 306 307 309 310 311 312 313 314 315 316 317 318 319 320 321 322 323 324 325 326 327 328 329 330 331 332 
		366 367 368 369 370 371 372 373 374 375 376 422 423 425
		4146 4643 4644 4645 4646
		899 910 905 916 900 917 911 908 914 915 901 909 902 898 903 904 906 907 913 918 838
		348 347 346 345 344 343 342 341 340 339 338 337 336 335 334 349 350 351 352 353 354
		356 357 359 360 361 362 363 365 364 377 378 379 380 569 394 587 579 923 408 576 575
		409 410 411 412 413 414 415 416 417 418
		419 420 424 426 427 428 429 430 431 432 433 434 435 436 437 438 439
		440 441 
		919 920 921 922 452 506 507 508 510 524
	}
}

natives_gnolls = { #Sarhal and the Folly
	graphical_culture = muslimgfx
	color = { 180 180 80 }
	icon = 47
	
	unit = gnollish_1_gnoll_pack
	
	provinces = {
		#The Folly
		442 443 444 445 446 447 448 449 450 451 804
	
		#Sarhal
		1793 1794
		
		#Anbennar
		462 463 466 467 473 475 468 464
		381 382 383 384 385 386 387 388 389 390 391 392 393 395 396 397
		398 399 400 401 402 403 404 405 406 407 453 454 455 456 457 458 459 460
		461 465 469 470 471 472 474 476 477 478 479 480
		481 482 483 484 485 486 487 488 489 490 491 492 493 494 495 496 497 498 499 500 501
		502 503 504 505 512 513 514 515 516 517 518 519 520 521 522 523
		527 528 529 530 531 532 533 534 535 536 537 538 539 540 541 542 543 544
		545 546 547 548 549 550 551 552 553 554 555 556 557 558 559 560 561 562 563 564 565
		566 567 568 570 571 572 573 574 577 578 
		580 581 582 583 584 585 586 588 589 590 591 592 593 594 595 596 597 598 599
		600 601 602 603 604 605 606 607 608 609 610 611 612 613 614 615 616 617 618 619 620
		621 622 623 624 625 626 627 628 629 630 631 632 633 634 635 636 637 638 639 640 641
		642 643 644 645 646 647 648 649 650 651 652 653 654 655 656 657 658 659 660 661
		662 663 664 665 666 667 668 669 670 671 672 673 674 675 676 677 678 679 680 681 682
		683 684 685 686 687 688 689 690 691 692 693 4117 6088 6089 6090 6103
		
		#New Trade Nodes
		1300 1312 1305 1309 1312 1310 
		
		#Far Salahad
		2900 2901 2902 2903 2904 2905 2906 2907 2908 2909 2910 2911 2912 2913 2915 2916
		2917 2918 2919 2920 2921 2922 2923 2924 2925 2926 2927 2928 2929 2930 4376 4400
		
		# Sarhal
		5431 5432 5433 5434 5435 5436 5437 5438 5439 5440 5441 5442 5443 5444 5449 5450
		5451 5452 5453 5454 5455 5456 5457 5458 5459 5460 5461 5462 5463 5464 5465 5466 5467 5468 5469 5470
		5471 5472 5473 5474 5475 5476 5477 5478 5479 5480 5490
		5491 5492 5493 5494 5495 
		
		5532 5533 
		
		5667 5668 5676
		
		6091 6092 6093 6094 6095 6096 6097 6098 6099 6100 6101 6102 6104
		
	}
}

natives_goblins_common = {
	graphical_culture = westerngfx
	color = { 255 255 0 }
	icon = 48
	
	unit = goblin_1_goblin_horde
	
	provinces = {
		#Escann
		876 823 825 830 829 821 799 791 774 726 733 734
		
		#Deepwoods
		3040 3041 3039 3061 3060 3035 3032 3015 3066 3007 3008 3050 3009 3010 3071 509 511
	}
}

natives_goblins_cave = {
	graphical_culture = westerngfx
	color = { 255 255 0 }
	icon = 50
	
	unit = goblin_1_goblin_horde
	
	provinces = {
		#Serpent's Vale
		4142 4131 4143 4166 4164
		4194 4192 4193 4196 4199 4198 4201 4202 4200 4190 4191 4189 4183 4181
		4185 4186 4188
		
		#West Dwarovar
		4121 4120 4203 4204 4205 4207 4208 4206
		4209 4211 2897 2896 2863 2935 2865 2898 2899 2869 4163 4022 4021 4023
		4025 4026 2866 2867 2871 4074 4096 4044 4045 4046 4047 4048 4049 4043 2872 2933
		4050 4051 4052 4053 2873 2874 2934 4065 4067 4066 4061 4060 4059 4057 4058 2932 4104
		2931 2986 2876 2988 4165 4212 4213 4150 4063 4064 2989 2990 2991 4141 4144 2993
		2996 2997 2998 4118 4147 4148 4130 2999 3000 3002 4020 4075 4077 4105 4237 4097
		4068 4070 4071 4072 4073 2877 2937 2878 4102 2879 2880 4103 2963 2881 2882 2883  2884
		4552 4553
		
		#Middle Dwarovar
		2887 2888 4227 4229 4214 2889 2890 2891 4239 4080 4084
		4081 4083 4085 4027 2892 2893 4216 4082 4230 4088 4110 4109 4108 4107 4086 4087 4089
		4106 4092 4095 4094 2894 2895 2914 4220 4219 4223 4231 4091 4221 4222 4111 4113 4114 4090 4218
		
		#Serpentreach
		4038 4037 4040 4042 4041 2949 4036 2984 2951 2952 2982 2978 2983 2974
		4099 2975 4098 2970 2968 2969 4240 2962 2946 2976 2972 2971 2967 2966 2965 2964
		2944 2943 4126 4127 2961 2959 2958 2960 2948 2950 2955 2954 2956
		2957 4034 4032 4031 4030 2941 2939 2940 2987
		
		#Tree of Stone
		4243 4244 4245 4246 4248 4249 4250 4253 4254 4255 4256 4257 4258 4259 4261 
		4262 4264 4265 4266 4297 4298 4300 4284 4279 4280 4281 4271 4267 4282 4269 4270 4272
		4274 4275 4268 4283 4285 4287 4286 4288 4294 4295 4296 4299 4278 4289 4291
		
		#Jade Mine
		4301 4302 4303 4304 4305 4306 4307 4308 4309 4310 4314 4315 4316 4317 4318 4319 4320 4359 4360 4312
		4350 4311 4313 4339 4338 4337 4336 4335 4334 4351 4352 4348 4349 4324 4325 4326 4353 4327 4329 4330 
		4331 4332 4344 4354 4345 4355 4342 4341 4340 4323 4356 
		
		#Impassables
		4153
	}
}

natives_kukatodic = {
	graphical_culture = inuitgfx
	color = { 0 255 255 }
	icon = 52
	
	unit = islanders_1_islanders_militia
	
	provinces = {
		
		#Forbidden Lands
		5002 5003 5006 5007 5008 5010 5011 5012 5017 5018 5320 5321 5323
	}
}

natives_orcs_green = {
	graphical_culture = westerngfx
	color = { 0 255 255 }
	icon = 53
	
	unit = orcish_1_the_horde
	
	provinces = {
	
		#Forlorn Vale
		355 358 779 778 777 775
	
		#Escann
		229 230 231 232
		694 695 696 697 698 699 700 702 703
		704 705 706 710 721 722 723 724
		725 727 728 729 730 731 732
		741 742 743 744 745 746 747 748 749 751 752 753 754 755 756 758 759 760 761
		762 763 764 767 768 770 771 772 773 781 782
		783 784 785 786 790 792 793 794 795 796 797 800 801 803
		805 806 807 810 811 812 813 814 815 816 818 819 822 824
		826 828 831 832 834 833 788 789 798
		836 837 839 840 841 842 843 844 845 846 847 848 849 850 851 852 853 855
		856 857 858 859 860 861 862 863 864 867 868 869 870 871 872 873 875
		877 878 879 880 881 882 883 884 885 886 887 888 889 890 891 892 893 894 895 896 897
		1782
		
		#Deepwoods
		3013 3014 3016 3019 3022 3023
		3026 3027 3028 3029 3030 3031 3034 3036 3037 3038 3042 3043 3044
		3045 3046 3047 3052 3053 3055 3056 3059 3062 3063 3064 3065 3067
		3068 3069 3070
		
		# New Impassables
		4154 4155 4156 4157 4159 4160 4161 4162
	}
}

natives_orcs_grey = {
	graphical_culture = westerngfx
	color = { 0 255 255 }
	icon = 54
	
	unit = orcish_1_the_horde
	
	provinces = {
		
		#Alenic Reach
		711 716 719 720 735 737 738 739 740 736
		
		#Gerudia
		987 988 989 990 991 992 4171 4173 4174 4175 4176 4180 4184
		
		#New Trade Nodes
		1286 1289 1256 1322 1294 1263 1292 1296 1252
	}
}

natives_orcs_black = {
	graphical_culture = westerngfx
	color = { 0 255 255 }
	icon = 55
	
	unit = orcish_1_the_horde
	
	provinces = {
	
		#West Dwarovar
		4210 3003 3001 2992 4062 4236 4055 4149 4119 4128 4122 2995 4054 2868 2875 4056 4069 4101 4029
		
		#Serpent's Vale
		4152 4187 4197
		
		#Serpent's Reach
		4039 2981 2980 2979 4035 2977 4100 2945 2947 2942 4033 4238
		
		#Middle Dwarovar
		4112 4079 4078 4215 4228 2886 4028 2885 4217
		
		#Tree of Stone
		4263 4293 4260 4290 4273 4251 4252 4292 4277 4242
	}
}

natives_ogres = {
	graphical_culture = westerngfx
	color = { 0 255 255 }
	icon = 58
	
	unit = giantkind_1_troll_horde
	
	provinces = {
		
		#Serpent's Vale
		4123 4125 4129 4145 4151 4158 4182 4195
		#Ogre Mountains
		5040 5041 5042 5043 5037 5038 5034 5036 5032 5039 5031 5033 5030 5035 5027 5028 5029 5322 5024 5025 5026 5019 5020 5021 5022 5005
	}
}

natives_trolls = {
	graphical_culture = inuitgfx
	color = { 0 255 255 }
	icon = 59
	
	unit = giantkind_1_troll_horde
	
	provinces = {
		#Northern Gerudia
		2833 2834 2835 2832 2830 2831 2829 986 984 983 981 982 980 979 978 977 976 975 985 973 972 974 954 956 955 952 708 953 997 959 960 961 962 
		958 963 957 964 965 966 967 969 998 971 970 968 1000 994 995 996 999 993 6171 6220 6240
		
		#Northen pass
		6173 6187 6196 6214
	}
}

natives_sarhal = {
	graphical_culture = africangfx
	color = { 0 255 255 }
	icon = 60
	
	unit = salahadesi_1_salahadesi_spearmen
	
	provinces = {
		#New Salahad
		5801 5802 5803 5800 5814 5817 5815 5813 5816 5811 5804 5798 5799 5795 5796 5797 5786 5794 5793 5787 
		5785 5788 5789 5742 5736 5737 5735 5734 5732 5733 5731 5719 5718 5628 5675 5681 5674 5665 5664 5691 
	
		#West Sarhal
		5481 5482 5483 5484 5485 5486 5487 5488 5489 5692 5693 5666 6027 6028 6029 6125 6022 6024 6025 5923 5916 5915 5911 
		5867 5870 5869 5865 5868 5863 5857 5864 5856 5860 5854 5853 5859 5858 5891 5892 5851 5852 5849 5847 5861 5862 5885 
		5886 5887 5888 5889 5890 5845 5844 6126 5873 5843 5872 5875 5846 5871 5874 5876 5877 5879 5878 5883 5882 5881 5880 
		5841 5840 5842 5715 5839 5835 5837 5838 5836 5703 5702 5773 5698 5697 5696 5695 5678 5677 5679 5700 5694 5699 5774 
		5705 5704 5680 5683 5706 5707 5709 5708 5684 5685 5711 5712 5710 5713 5805 5716 5763 5766 5722 5723 5721 5720 5729 
		5730 5728 5726 5727 5725 5724 5765 5764 5762 5761 5760 5753 5754 5752 5748 5747 5746 5745 5744 5749 5751 5750 5755 
		5759 5758 5757 5756 5743 5769 5770 5768 5767 5771 5740 5739 5738 5741 5780 5772 5779 5781 5782 5808 5783 5784 5810 
		5812 5809 5807 5806 5776 5777 5775 6129 6130 6131 6135 6134 6132 6133 
		
		#East Sarhal
		5445 5446 5447 5448 5496 5497 5498 5499 5500 5501 5502 5503 5504 5505 5506 5507 5508 5509 5510 5531 5690 5688 5689 
		5686 5615 5599 5596 5598 5595 5594 5593 5592 5687 5516 5515 5517 5518 5514 5513 5512 5511 5523 5672 5524 5525 5535 
		5519 5520 5527 5528 5522 5521 5531 5669 5530 5529 5536 5540 5541 5542 5543 5544 5552 5556 5553 5551 5538 5531 6118 
		5554 5555 5588 5589 5590 5591 5597 5601 5603 5604 5616 5617 5614 5613 5600 5607 5606 5621 5608 5602 5587 5569 5568 
		5567 5547 5546 5545 5550 5549 5548 5671 5560 5558 5557 5564 5566 5565 5562 5563 5571 5572 5570 5578 5574 5573 5576 
		5575 5577 5579 5580 5582 5583 5584 5585 5586 5622 5624 5625 5623 5605 5611 5609 5612 5581 
		
		#South Sarhal
		5893 5895 5896 5898 5899 5897 5894 5926 5901 5900 5903 5914 5905 5919 5902 5906 5907 5908 5904 5912 5913 5909 5918 
		5927 5920 5924 6023 5925 5922 5921 5966 5968 5967 6062 5965 5964 5932 5933 5931 5928 5910 5929 5930 5934 5935 5936 
		5937 5938 5939 5940 5944 5942 5941 5943 5946 5948 5950 5949 5951 5953 5952 5947 5945 5954 5955 5956 5958 5957 5959 
		5960 5961 5962 5963 5979 5978 5976 5969 5977 5980 5981 5975 5970 5971 5972 5973 5988 5990 5989 5985 5974 5982 5983 
		5984 5987 5986 6002 5999 5998 5997 6001 5995 5994 5649 5657 5993 5991 5992 6003 5996 6005 6006 6004 6007 6008 5651 
		5648 5650 5652 5654 6013 6012 6011 6010 6009 6060 5855 6034 6035 6036 6037 6038 6039 6041 6042 6043 6000 6044 6045 
		6046 6047 6048 6049 6050 6051 6053 6054 6055 6057 6058 6059 6127 6056 6021 6020 6019 6018 6017 6016 5653 6014 5635 
		5634 5631 5633 5636 5639 5637 5632 5630 5629 5638 5640 5645 5642 5643 5628 5627 5641 5644 5647 5646 5658 5659 5663 
		5660 5661 5662 5620 5619 5618 5670 5626 5848 6063 6064 6065 6066 6067 6069 6070 6071 6085 6072 6084 6073 6083 6074 
		6075 6082 6076 6077 6081 6078 6079 6080 6052 6086 6087 6068 6061 6040 
	}
}

natives_dwarf = {
	graphical_culture = westerngfx
	color = { 0 255 255 }
	icon = 61
	
	unit = dwarven_1_shieldwall
	
	provinces = {
		#Cannor
		62 64 65 308 912 854
		
		#Bulwar
		525 526
	
		#Dwarovar
		2870 2864 2973 2985 2994 4076 4093 4124 4247
		
		#Thidinkai
		5424
	}
}

natives_vyzemby = {
	graphical_culture = africangfx
	color = { 0 255 255 }
	icon = 62
	
	unit = salahadesi_1_salahadesi_spearmen
	
	provinces = {
		#Islands off Sarhal
		5714 5818 5819 5820 5821 5822 5823 5824 5825 5826 5827 5828 5829 5830 5831 5832 5833 5834 6030 6031 6032 6033 
	}
}

natives_halfling = {
	graphical_culture = westerngfx
	color = { 0 255 255 }
	icon = 63
	
	unit = cannorian_1_medieval_infantry
	
	provinces = {
		#Cannor
		766
	}
}

natives_halfling = {
	graphical_culture = westerngfx
	color = { 0 255 255 }
	icon = 64
	
	unit = kobold_1_clansmen
	
	provinces = {
		#Dwarovar
		4024
	}
}

natives_haless = { #Haless except Forbidden Lands
	graphical_culture = indiangfx
	color = { 255 255 80 }
	icon = 1
	
	unit = halessi_1_halessi_bowmen
	
	provinces = {
		#Rahen Coast
		4361 4362 4363 4365 4366 4367 4368 4369 4370 4371 4372 4373 4374 4375 4377 4378 4379 4380
		4381 4382 4383 4384 4385 4386 4387 4388 4389 4390 4391 4392 4393 4394 4395 4396 4397 4398 4399 4404
		4405 4406 4410 4411 4412 4413 4414 4415 4416 4417 4418 4419 4420 4421 4422 4423 4424 4425 
		
		#Rakhadesh
		4426 4427 4428 4429 4430 4431 4432 4433 4434 4435 4436 4437 4438 4439 4440 4441 4442 4490 4491 
		4492 4493 4547 4551 4443 4444 4445 4446 4447 4448 4449 4548
		
		#Dhujat
		4407 4408 4409 4461 4469 4471 4472 4473 4474 4477 4479 4480 4481 4482 4483 4484 4485 4486 4487
		4488 4494 4495 4496 4497 4498 4499 4502 4503 4504 4505 4506 4508 4527
		
		#Shamakhad
		4450 4451 4452 4453 4454 4455 4456 4457 4458 4459 4460 4462 4463 4464 4465 4466 4467 4468 4475 
		4476 4478 4507 4509 4510 4513 4514 4515 4516 4517 4518 4519 4520 4521 4522 4523 4524 4525 4526 4527 4528
		4529 4530 4531 4532 4533 4534 4535 4536 4537 4538 4539 4540 4541 4542 4543 4544 4545 4546 4547 4549
		4550 4629 4630 4631 4632 4642 4633 4634 4635 4636 4637 4638 4639 4640 4642
		
		#Bomdan
		4554 4555 4556 4557 4558 4560 4561 4562 4563 4564 4565 4566 4567 4568 4569 4570
		4571 4572 4573 4574 4575 4576 4577 4578 4579 4580 4581 4582 4583 4584 4585 4586 4587 4588 4589 4590
		4591 4592 4593 4594 4595 4596 4597 4598 4599 4600 4601 4602 4603 4604 4605 4606
		4795 4796 4797 4798 4799
		4800 4801 4802 4803 4804 
		4941 4946
		
		#Xianjie
		4364
		4470 4489
		4500 4501 4511 4512 4559
		4607 4608 4609 4610 4611 4612 4613 4614 4615 4616 4617 4618 4619 4620 4621 4622 4623 4624 4625 4626 4627 4628 4641
		4793 4794 4782 4783 4784 4785 4786 
		4806 4808 4809 4810 4811 4816 4817 4818 4819 4820 4821 4822
		4934 4936 4937 4935 4938 4939 4947 4948
		
		#Demon Hills
		4812 4813 4814 4815 4829 4830 4831 4832 4833 4834
		4969 4970 4971 4973
		5430
		
		#Upper Yanshen
		4819 4824 4825 4826 4827 4828 4840 4834 4842 4843 4845 4844 4846 4847 4848 4849 4850 4851 4852 4853 4854 4855 4856 4858 4859 4861 4898 4899 
		4900 4901 4902 4906 4933 4950 4951 4952 4972 4974 4975 4976 4981 4982 4984 4985 
		5426
		
		#Lower Yanshen
		4835 4836 4837 4838 4839 4841 4857 4860 4862 4864 4867 4868 4869 4870 4871 4872 4873 4874 4875 4876 4877 4878 4879 4880 4881 4882 4883 4884 4885 4886 4887 4888 4889 4890 4891 4892 4893 4894 4895 4896
		4903 4904 4905 4907 4908 4909 4910 4911 4912 4913 4914 4915 4916 4917 4918 4919 4920 4921 4922 4923 4924 4925 4926 4927 4928 4930 4931 4932 4949 4983 4977 4978 4979 4980
		5420
		
		#Thidinkai
		4694 4695 4696 4697 4698
		4702 4703 4704 4705 4738 4739 4740 4743 4744 4745 4746 4747 4748 4749 4750 4751 4752 4753 4754 4755 4756 4757 4758 4759 4760 4761 4762 4763 4764 4771 4775 4776 4777 4778 4779 4780 4781 4787 4788 4789 4790 4791 4792 4823
		4940 4942 4943  4944 4945 4954 4955 4958 4960 4966 4967 4968
		5425 5428 5429
		
		#Lupulan Rainforest
		4699
		4700 4701 4706 4707 4708 4709 4710 4711 4712 4713 4714 4715 4716 4717 4718 4719 4720 4721 4722 4723 4724 4725 4726 4727 4728 4729 4730 4731 4732 4733 4734 4735 4736 4737 4741 4742 4765 4766 4767 4768 4769 4770 4772 4774
		4805 4807
		4953 4956 4957 4959 4961 4962 4963 4964 4965
		
		#Ringlet Isles
		4773
		6136 6137 6138 6139 6140 6141 6142 6144 6145 6146 6147 6148 6149 6151 6152 6153
	}
}
