
# federal_constitution = {
	# gfx = GFX_federal_constitution
	# can_pick = {
		# # Need all other advancements
		# num_federation_advancements = 7
		# is_migratory_tribe = no
	# }

	# effect = {
		# # Switch Tag
		# if = { 
			# limit = { primary_culture = creek NOT = { exists = CRE } }
			# change_tag = CRE
			# add_permanent_claims_for_federation_nation = { ORIGINAL = ROOT TAG = CRE }
			# swap_federation_idea_group = yes

		# }
		# else_if = { 
			# limit = { primary_culture = dakota NOT = { exists = SIO } }
			# change_tag = SIO
			# add_permanent_claims_for_federation_nation = { ORIGINAL = ROOT TAG = SIO }
			# swap_federation_idea_group = yes

		# }
		# else_if = { 
			# limit = { primary_culture = huron NOT = { exists = HUR } }
			# change_tag = HUR
			# add_permanent_claims_for_federation_nation = { ORIGINAL = ROOT TAG = HUR }
			# swap_federation_idea_group = yes

		# }
		# else_if = { 
			# limit = { primary_culture = illini NOT = { exists = ILL } }
			# change_tag = ILL
			# add_permanent_claims_for_federation_nation = { ORIGINAL = ROOT TAG = ILL }
			# swap_federation_idea_group = yes

		# }
		# else_if = { 
			# limit = { primary_culture = iroquois NOT = { exists = IRO } }
			# change_tag = IRO
			# add_permanent_claims_for_federation_nation = { ORIGINAL = ROOT TAG = IRO }
			# swap_federation_idea_group = yes

		# } 
		# else_if = { 
			# limit = { primary_culture = anishinabe NOT = { exists = POT } }
			# change_tag = POT
			# add_permanent_claims_for_federation_nation = { ORIGINAL = ROOT TAG = POT }
			# swap_federation_idea_group = yes

		# }
		# else_if = { 
			# limit = { primary_culture = shawnee NOT = { exists = SHA } }
			# change_tag = SHA
			# add_permanent_claims_for_federation_nation = { ORIGINAL = ROOT TAG = SHA }
			# swap_federation_idea_group = yes

		# }
		# else = {
			# form_federation_nation = {
				# post_effect = {
					# add_permanent_claims_for_federation_nation = { ORIGINAL = ROOT TAG = THIS }
					# swap_federation_idea_group = yes
				# }
			# }
		# }
		# # Unite federation
		# custom_tooltip = INTEGRATE_FEDERATION_MEMBERS
		# hidden_effect = {
			# every_federation_member = {
				# every_tribal_land_province = {
					# change_tribal_land = ROOT
				# }
			# }
			# every_federation_member = {
				# limit = {
					# NOT = { tag = PREV }
					# ai = yes
				# }
				# ROOT = {
					# inherit = PREV
				# }
			# }
			# every_owned_province = {
				# change_tribal_land = ROOT
			# }
		# }
		
		# if = {
			# limit = {
				# NOT = { government_rank = 2 }
			# }
			# set_government_rank_force = 2
		# }
		# add_country_modifier = {
			# name = "centralization_modifier"
			# duration = 7300
		# }
		# add_prestige = 25

		# hidden_effect = {
			# disband_federation = yes
		# }
	# }

	# ai_chance = {
		# factor = 1
	# }
# }

# unified_warbands = {
# 	gfx = GFX_unified_warbands

# 	can_pick = {
# 		# Need at least 3 members
# 		# Need max trust with all members
# 		#federation_size = 3
# 		#all_federation_members = {
# 		#	trust = { who = ROOT value = 100 }
# 		#}
# 	}

# 	effect = {
# 		# Can do offensive wars
# 		allow_federation_offensive_wars = yes
# 	}

# 	ai_chance = {
# 		factor = 1
# 	}
# }

mutual_trust = {
	gfx = GFX_mutual_trust
	
	can_pick = {
		always = yes
	}

	modifier = {
		monthly_federation_favor_growth = 0.1
	}

	ai_chance = {
		factor = 2
	}
}

joint_grain_depots = {
	gfx = GFX_joint_grain_depots
	
	can_pick = {
		always = yes
	}

	modifier = {
		tribal_development_growth = 0.02
	}

	ai_chance = {
		factor = 2
	}
}

pax_americana = {
	gfx = GFX_pax_americana
	
	can_pick = {
		always = yes
	}

	modifier = {
		global_trade_goods_size_modifier = 0.1
	}

	ai_chance = {
		factor = 1
	}
}

united_resistance = {
	gfx = GFX_united_resistance
	
	can_pick = {
		always = yes
	}
	modifier = {
		hostile_attrition = 1
	}

	ai_chance = {
		factor = 1
	}
}

chartered_settlements = {
	gfx = GFX_chartered_settlements
	
	can_pick = {
		always = yes
	}
	modifier = {
		settle_cost = -0.2
	}

	ai_chance = {
		factor = 1
	}
}


shared_knowledge = {
	gfx = GFX_shared_knowledge
	
	can_pick = {
		NOT = { has_reform = adventurer_reform }
	}
	modifier = {
		global_institution_spread = 0.2
	}

	ai_chance = {
		factor = 1
	}
}

