
adenica_1_missions = { 
	slot = 1
	generic = no
	ai = yes 
	has_country_shield = yes
	potential = { tag = B58 }

	adenica_chivalric_justice = {
		icon = geneva_conventions
		position = 1
		required_missions = { }

		provinces_to_highlight = { }

		trigger = {
			custom_trigger_tooltip = {
				tooltip = adenica_chivalric_justice_trigger_tt
				OR = {
					AND = {
						any_ally = {
							NOT = { total_development = 100 }
							trust = {
								who = ROOT
								value = 80
							}
						}
						any_subject_country = {
							NOT = { total_development = 100 }
							trust = {
								who = ROOT
								value = 80
							}
						}
					}
					calc_true_if = {
						all_ally = {
							NOT = { total_development = 100 }
							trust = {
								who = ROOT
								value = 80
							}
						}
						amount = 2
					}
					calc_true_if = {
						all_subject_country = {
							NOT = { total_development = 100 }
							trust = {
								who = ROOT
								value = 80
							}
						}
						amount = 2
					}
				}
			}
		}

		effect = {
			add_country_modifier = {
				name = adenica_justice
				duration = 7300
			}
			adenicaIncrementChivalryMissionCompleted = yes
			hidden_effect = {
				set_ruler_flag = adenica_justice_taken
			}
		}
	}

	adenica_chivalric_temperance = {
		icon = geneva_conventions
		position = 2
		required_missions = { }

		provinces_to_highlight = { }

		trigger = {
			NOT = { inflation = 1 }
			NOT = { corruption = 0.1 }
			NOT = { num_of_loans = 1 }
			NOT = { average_unrest = 1 }
		}

		effect = {
			add_country_modifier = {
				name = adenica_temperance
				duration = 7300
			}
			adenicaIncrementChivalryMissionCompleted = yes
			hidden_effect = {
				set_ruler_flag = adenica_temperance_taken
			}
		}
	}

	adenica_western_approach = {
		icon = conquer_east_francia
		position = 4
		required_missions = {
			adenica_foals_first_steps
		}

		provinces_to_highlight = {
			OR = {
				area = silvervord_area
				area = upcreek_area
			}
			NOT = { country_or_non_sovereign_subject_holds = ROOT }
		}

		trigger = {
			silvervord_area = {
				type = all
				country_or_non_sovereign_subject_holds = ROOT
			}
			upcreek_area = {
				type = all
				country_or_non_sovereign_subject_holds = ROOT
			}
		}

		effect = {
			nortmerewood_area = {
				limit = { 
					NOT = { is_core = ROOT }
					NOT = { owned_by = ROOT }
				}
				add_permanent_claim = ROOT
			}
			merescker_area = {
				limit = { 
					NOT = { is_core = ROOT }
					NOT = { owned_by = ROOT }
				}
				add_permanent_claim = ROOT
			}
		}
	}

	adenica_royal_hunting_grounds = {
		icon = mission_clear_the_delta
		position = 6
		required_missions = {
			adenica_western_approach
		}

		provinces_to_highlight = {
			OR = {
				area = nortmerewood_area
				area = merescker_area
			}
			NOT = { country_or_non_sovereign_subject_holds = ROOT }
		}

		trigger = {
			nortmerewood_area = {
				type = all
				country_or_non_sovereign_subject_holds = ROOT
			}
			merescker_area = {
				type = all
				country_or_non_sovereign_subject_holds = ROOT
			}
		}

		effect = {
			oudmerewood_area = {
				limit = { 
					NOT = { is_core = ROOT }
					NOT = { owned_by = ROOT }
				}
				add_permanent_claim = ROOT
			}
			catelsvord_area = { #Catelsvord
				limit = { 
					NOT = { is_core = ROOT }
					NOT = { owned_by = ROOT }
				}
				add_permanent_claim = ROOT
			}
			devaced_area = {
				limit = { 
					NOT = { is_core = ROOT }
					NOT = { owned_by = ROOT }
				}
				add_permanent_claim = ROOT
			}
		}
	}

	adenica_stretch_legs = {
		icon = mission_reconquer_ceuta
		position = 7
		required_missions = {
			adenica_royal_hunting_grounds
		}

		provinces_to_highlight = {
			OR = {
				area = oudmerewood_area
				area = catelsvord_area
				area = devaced_area
			}
			NOT = { country_or_non_sovereign_subject_holds = ROOT }
		}

		trigger = {
			oudmerewood_area = {
				type = all
				country_or_non_sovereign_subject_holds = ROOT
			}
			catelsvord_area = {
				type = all
				country_or_non_sovereign_subject_holds = ROOT
			}
			devaced_area = {
				type = all
				country_or_non_sovereign_subject_holds = ROOT
			}
		}

		effect = {
			dostans_way_area = {
				limit = { 
					NOT = { is_core = ROOT }
					NOT = { owned_by = ROOT }
				}
				add_permanent_claim = ROOT
			}
			vernham_area = {
				limit = { 
					NOT = { is_core = ROOT }
					NOT = { owned_by = ROOT }
				}
				add_permanent_claim = ROOT
			}
			oudeben_area = {
				limit = { 
					NOT = { is_core = ROOT }
					NOT = { owned_by = ROOT }
				}
				add_permanent_claim = ROOT
			}
		}
	}

	adenica_secure_flanks = {
		icon = kingdom_of_cyprus
		position = 8
		required_missions = {
			adenica_stretch_legs
		}

		provinces_to_highlight = {
			OR = {
				area = dostans_way_area
				area = vernham_area
				area = oudeben_area
			}
			NOT = { country_or_non_sovereign_subject_holds = ROOT }
		}

		trigger = {
			dostans_way_area = {
				country_or_non_sovereign_subject_holds = ROOT
			}
			vernham_area = {
				type = all
				country_or_non_sovereign_subject_holds = ROOT
			}
			oudeben_area = {
				type = all
				country_or_non_sovereign_subject_holds = ROOT
			}
		}

		effect = {
			cannwood_area = {
				limit = { 
					NOT = { is_core = ROOT }
					NOT = { owned_by = ROOT }
				}
				add_permanent_claim = ROOT
			}
			westwall_approach_area = {
				limit = { 
					NOT = { is_core = ROOT }
					NOT = { owned_by = ROOT }
				}
				add_permanent_claim = ROOT
			}
		}
	}

	adenica_gaze_north = {
		icon = the_crown_of_lothair
		position = 9
		required_missions = {
			adenica_secure_flanks
		}

		provinces_to_highlight = {
			OR = {
				area = cannwood_area
				area = westwall_approach_area
			}
			NOT = { country_or_non_sovereign_subject_holds = ROOT }
		}

		trigger = {
			cannwood_area = {
				type = all
				country_or_non_sovereign_subject_holds = ROOT
			}
			westwall_approach_area = {
				type = all
				country_or_non_sovereign_subject_holds = ROOT
			}
		}

		effect = {
			nortmere_area = {
				limit = { 
					NOT = { is_core = ROOT }
					NOT = { owned_by = ROOT }
				}
				add_permanent_claim = ROOT
			}
			lower_nath_area = {
				limit = { 
					NOT = { is_core = ROOT }
					NOT = { owned_by = ROOT }
				}
				add_permanent_claim = ROOT
			}
			westgate_area = {
				limit = { 
					NOT = { is_core = ROOT }
					NOT = { owned_by = ROOT }
				}
				add_permanent_claim = ROOT
			}
		}
	}

	adenica_staging_grounds = {
		icon = mission_assemble_an_army
		position = 10
		required_missions = {
			adenica_gaze_north
		}

		provinces_to_highlight = {
			OR = {
				area = nortmere_area
				area = lower_nath_area
				area = westgate_area
			}
			NOT = { country_or_non_sovereign_subject_holds = ROOT }
		}

		trigger = {
			nortmere_area = {
				type = all
				country_or_non_sovereign_subject_holds = ROOT
			}
			lower_nath_area = {
				type = all
				country_or_non_sovereign_subject_holds = ROOT
			}
			westgate_area = {
				type = all
				country_or_non_sovereign_subject_holds = ROOT
			}
		}

		effect = {
			castonath_area = {
				limit = { 
					NOT = { is_core = ROOT }
					NOT = { owned_by = ROOT }
				}
				add_permanent_claim = ROOT
			}
			add_country_modifier = {
				name = adenica_final_push
				duration = 3650
			}
		}
	}

	adenica_reclaim_castonath = {
		icon = take_the_littoral
		position = 11
		required_missions = {
			adenica_staging_grounds
		}

		provinces_to_highlight = {
			area = castonath_area
			NOT = { country_or_non_sovereign_subject_holds = ROOT }
		}

		trigger = {
			castonath_area = {
				type = all
				country_or_non_sovereign_subject_holds = ROOT
			}
		}

		effect = {
			add_prestige = 20
			add_splendor = 200
		}
	}

	adenica_adeanic_escann_war = {
		icon = kingdom_of_heaven
		position = 14
		required_missions = {
			adenica_adeans_favored_war
		}

		provinces_to_highlight = {
			owner = {
				culture_group = escanni
				NOT = { religion = regent_court }
				capital_scope = {
					superregion = escann_superregion
				}
			}
		}

		trigger = {
			custom_trigger_tooltip = {
				tooltip = adenica_adean_escann_tt
				NOT = {
					any_country = {
						culture_group = escanni
						capital_scope = {
							superregion = escann_superregion
						}
						NOT = { religion = regent_court }
					}
				}
			}
			castonath_area = {
				type = all
				country_or_non_sovereign_subject_holds = ROOT
				religion = regent_court
			}
		}

		effect = {
			custom_tooltip = adenica_adeanic_escann_war_effect_tt
			hidden_effect = {
				set_global_flag = upgraded_adean_war
			}
			every_country = {
				limit = { has_personal_deity = adean }
				change_personal_deity = adean_adenica_war
			}
		}
	}
}

adenica_2_missions = { 
	slot = 2
	generic = no
	ai = yes 
	has_country_shield = yes
	potential = { tag = B58 }

	adenica_chivalric_conviction = {
		icon = geneva_conventions
		position = 1
		required_missions = { }

		provinces_to_highlight = {
			owned_by = ROOT
			NOT = { religion = regent_court }
		}

		trigger = {
			religion = regent_court
			num_of_religion = {
				religion = regent_court
				value = 0.8
			}
			num_of_religion = {
				religion = regent_court
				value = 25
			}
		}

		effect = {
			add_mil_power = 75
			add_dip_power = 75
			add_adm_power = 75
			adenicaIncrementChivalryMissionCompleted = yes
			hidden_effect = {
				set_ruler_flag = adenica_conviction_taken
			}
		}
	}
	
	adenica_chivalric_wisdom = {
		icon = geneva_conventions
		position = 2
		required_missions = { }

		provinces_to_highlight = { }

		trigger = {
			OR = {
				if = {
					limit = { NOT = {  has_dlc = "Rule Britannia" } }
					dip_power = 175
					adm_power = 175
					mil_power = 175
				}
				else = {
					innovativeness = 25
				}
				university = 5
			}
			num_of_generals = 4
		}

		effect = {
			add_country_modifier = {
				name = adenica_wisdom
				duration = 7300
			}
			adenicaIncrementChivalryMissionCompleted = yes
			hidden_effect = {
				set_ruler_flag = adenica_wisdom_taken
			}
		}
	}

	adenica_noble_knights = {
		icon = the_russian_campaign
		position = 5
		required_missions = { }

		provinces_to_highlight = {  }

		trigger = {
			if = {
				limit = {
					has_dlc = "Emperor"
				}
				estate_loyalty = {
					estate = estate_nobles
					loyalty = 60
				}
				estate_influence = {
					estate = estate_nobles
					influence = 50
				}
				custom_trigger_tooltip = {
					tooltip = noble_knights_trigger_tt
					has_estate_privilege = estate_nobles_officer_corp
				}
			}
			else = {
				estate_loyalty = {
					estate = estate_nobles
					loyalty = 45
				}
				estate_influence = {
					estate = estate_nobles
					influence = 35
				}
			}
		}

		effect = {
			add_country_modifier = {
				name = adenica_nobility_is_knights
				duration = 7300
			}
		}
	}

	adenica_grand_hunt = {
		icon = mission_amur_acquisition
		position = 7
		required_missions = {
			adenica_from_lowly_page
			adenica_royal_hunting_grounds
		}

		provinces_to_highlight = { }

		trigger = {
			is_at_war = no
			treasury = 200
		}

		effect = {
			hidden_effect = { set_country_flag = adenica_hunt_event_unlocked }
			add_treasury = -200
			country_event = {
				id = flavor_adenica.1
			}
		}
	}

	adenica_shield_east_south = {
		icon = fortress_switzerland
		position = 9
		required_missions = {
			adenica_secure_flanks
		}

		provinces_to_highlight = {  }

		trigger = {
			dostans_way_area = {
				fort_level = 2
				has_manpower_building_trigger = yes
				has_forcelimit_building_trigger = yes
				owned_by = ROOT
				is_core = ROOT
			}
			oudeben_area = {
				fort_level = 2
				has_manpower_building_trigger = yes
				has_forcelimit_building_trigger = yes
				owned_by = ROOT
				is_core = ROOT
			}
		}

		effect = {
			add_country_modifier = {
				name = adenica_fortified_country
				duration = 7300
			}
			custom_tooltip = adenica_shield_east_south_effect_tt
			hidden_effect = {
				every_owned_province = {
					limit = {
						area = dostans_way_area
						fort_level = 2
						has_manpower_building_trigger = yes
						has_forcelimit_building_trigger = yes
						owned_by = ROOT
						is_core = ROOT
					}
					add_permanent_province_modifier = {
						name = adenica_fortified_province
						duration = -1
					}
				}
				every_owned_province = {
					limit = {
						area = oudeben_area
						fort_level = 2
						has_manpower_building_trigger = yes
						has_forcelimit_building_trigger = yes
						owned_by = ROOT
						is_core = ROOT
					}
					add_permanent_province_modifier = {
						name = adenica_fortified_province
						duration = -1
					}
				}
			}
		}
	}

	adenica_demand_chivalric_oaths = {
		icon = holy_state
		position = 10
		required_missions = { }

		provinces_to_highlight = {  }

		trigger = {
			stability = 3
			if = {
				limit = {
					has_dlc = "Emperor"
				}
				estate_loyalty = {
					estate = estate_nobles
					loyalty = 75
				}
				NOT = {
					estate_influence = {
						estate = estate_nobles
						influence = 60
					}
				}
			}
			else = {
				estate_loyalty = {
					estate = estate_nobles
					loyalty = 55
				}
				NOT = {
					estate_influence = {
						estate = estate_nobles
						influence = 40
					}
				}
			}
		}

		effect = {
			# Depreciated cause I'm lazy and can't think up loca anymore
			# country_event = {
			# 	id = flavor_adenica.30
			# 	add_government_reform = adenica_chivalric_oaths
			# }
			if = {
				limit = { government = monarchy }
				add_government_reform = adenica_chivalric_oaths
			}
			else = {
				add_country_modifier = {
					name = adenica_chivalric_oaths_temp
					duration = 7300
				}
			}
		}
	}

	adenica_build_tourney_grounds = {
		icon = austria_prospers
		position = 11
		required_missions = {
			adenica_demand_chivalric_oaths
		}

		provinces_to_highlight = { 
			province_id = 769
		}

		trigger = {
			years_of_income = 1
			769 = {
				owned_by = ROOT
				num_free_building_slots = 1
				NOT = { has_construction = building }
			}
			cavalry_fraction = 0.25
		}

		effect = {
			769 = {
				add_building_construction = {
					building = adenica_grand_tourney_grounds
					speed = 1
					cost = 0
				}
			}
			add_years_of_income = -1
			hidden_effect = {
				country_event = {
					id = flavor_adenica.22
					days = 7300
					random = 1825
				}
			}
		}
	}

	adenica_righteous_spear = {
		icon = mission_cossack_cavalry
		position = 12
		required_missions = {
			adenica_reclaim_castonath
			adenica_knight_radiant
		}

		provinces_to_highlight = { }

		trigger = {
			NOT = {
				mission_completed = adenica_dutiful_servent
			}
			num_of_cavalry = 30
			army_tradition = 75
			if = {
				limit = {
					has_dlc = "Emperor"
				}
				estate_loyalty = {
					estate = estate_adventurers
					loyalty = 60
				}
			}
			else = {
				estate_loyalty = {
					estate = estate_adventurers
					loyalty = 45
				}
			}
		}

		effect = {
			custom_tooltip = adenica_unlock_purge_heresy_cb_tt
			set_country_flag = adenica_war_chosen
		}
	}

	adenica_adeans_favored_war = {
		icon = mission_mounted_battle
		position = 13
		required_missions = {
			adenica_righteous_spear
		}

		provinces_to_highlight = { 
			owner = {
				NOT = { tag = ROOT }
				army_size = ROOT
				religion = regent_court
			}
		}

		trigger = {
			custom_trigger_tooltip = {
				tooltip = adenica_adeans_favored_war_trigger_tt
				NOT = {
					any_known_country = {
						NOT = { tag = ROOT }
						religion = regent_court
						army_size = ROOT
					}
				}
			}
			has_personal_deity = adean
		}

		effect = {
			add_country_modifier = {
				name = adenica_war_1
				duration = -1
			}
		}
	}

	adenica_glory_to_adean = {
		icon = give_him_back_his_legions
		position = 14
		required_missions = {
			adenica_adeans_favored_war
			adenica_reordering_court
		}

		provinces_to_highlight = { }

		trigger = {
			num_of_owned_provinces_with = {
				value = 75
				religion = regent_court
			}
			custom_trigger_tooltip = {
				tooltip = adenica_glory_to_adean_tt
				check_variable = {
					which = adenicaReligiousWarsWon
					value = 20
				}
			}
		}

		effect = {
			add_country_modifier = {
				name = adenica_war_2
				duration = -1
			}
			custom_tooltip = adenica_replace_modifier
			hidden_effect = {
				remove_country_modifier = adenica_war_1
			}
		}
	}

	adenica_adeanic_cannor_war = {
		icon = show_piety
		position = 15
		required_missions = {
			adenica_adeanic_escann_war
			adenica_glory_to_adean
		}

		provinces_to_highlight = {
			continent = europe
			OR = {
				religion = corinite
				religion = ravelian
			}
		}

		trigger = {
			custom_trigger_tooltip = {
				tooltip = adeanic_cannor_war_tt
				NOT = {
					calc_true_if = {
						amount = 10
						all_province = {
							continent = europe
							OR = {
								religion = corinite
								religion = ravelian
							}
						}
					}
				}
			}
		}

		effect = {
			add_country_modifier = {
				name = adenica_war_3
				duration = -1
			}
			custom_tooltip = adenica_replace_modifier
			hidden_effect = {
				remove_country_modifier = adenica_war_2
			}
		}
	}
}


adenica_3_missions = { 
	slot = 3
	generic = no
	ai = yes 
	has_country_shield = yes
	potential = { tag = B58 }

	adenica_chivalric_duty = {
		icon = geneva_conventions
		position = 1
		required_missions = { }

		provinces_to_highlight = {  }

		trigger = {
			
			if = {
				limit = { government = monarchy }
				months_of_ruling = 360
			}
			if = {
				limit = { government = republic }
				OR = {
					adm = 6
					mil = 6
					dip = 6
				}
			}
			if = {
				limit = { government = theocracy }
				months_of_ruling = 240
			}
			legitimacy_equivalent = 100
			is_monarch_leader = yes
		}

		effect = {
			add_country_modifier = {
				name = adenica_duty
				duration = 7300
			}
			adenicaIncrementChivalryMissionCompleted = yes
			hidden_effect = {
				set_ruler_flag = adenica_duty_taken
			}
		}
	}

	adenica_chivalric_diligence = {
		icon = geneva_conventions
		position = 2
		required_missions = { }

		provinces_to_highlight = {
			culture = adenner
			owned_by = ROOT
		}

		trigger = {
			monthly_income = 50
			development_in_provinces = {
				value = 300
				culture = adenner
			}
		}

		effect = {
			if = {
				limit = {
					NOT = {
						has_dlc = "Mandate of Heaven"
					}
				}
				if = {
					limit = { monthly_income = 50 }
					add_years_of_income = 1
				}
				else = {
					add_treasury = 500
				}
			}
			else = {
				if = {
					limit = { rohibon_area = { type = all owned_by = root} }
					rohibon_area = {
						add_prosperity = 100
					}
				}
				if = {
					limit = { adenica_area = { type = all owned_by = root} }
					adenica_area = {
						add_prosperity = 100
					}
				}
				if = {
					limit = { taran_plains_area = { type = all owned_by = root} }
					taran_plains_area = {
						add_prosperity = 100
					}
				}
			}
			add_country_modifier = {
				name = adenica_diligence
				duration = 7300
			}
			adenicaIncrementChivalryMissionCompleted = yes
			hidden_effect = {
				set_ruler_flag = adenica_diligence_taken
			}
		}
	}

	adenica_foals_first_steps = {
		icon = mission_unite_home_region
		position = 3
		required_missions = { }

		provinces_to_highlight = {
			OR = {
				area = adenica_area
				area = taran_plains_area
				area = rohibon_area
			}
			NOT = { country_or_non_sovereign_subject_holds = ROOT }
		}

		trigger = {
			adenica_area = {
				type = all
				country_or_non_sovereign_subject_holds = ROOT
			}
			taran_plains_area = {
				type = all
				country_or_non_sovereign_subject_holds = ROOT
			}
			rohibon_area = {
				type = all
				country_or_non_sovereign_subject_holds = ROOT
			}
		}

		effect = {
			silvervord_area = {
				limit = { 
					NOT = { is_core = ROOT }
					NOT = { owned_by = ROOT }
				}
				add_permanent_claim = ROOT
			}
			upcreek_area = {
				limit = { 
					NOT = { is_core = ROOT }
					NOT = { owned_by = ROOT }
				}
				add_permanent_claim = ROOT
			}
			add_country_modifier = {
				name = adenica_first_steps
				duration = 7300
			}
		}
	}

	adenica_restored = {
		icon = mission_restore_faith_in_the_throne
		position = 4
		required_missions = {
			adenica_foals_first_steps
		}

		provinces_to_highlight = {
			OR = {
				area = rohibon_area
				area = adenica_area
				area = taran_plains_area
				area = balmire_area
				area = falsemire_area
				area = verteben_area
				area = valefort_area
			}
			NOT = { country_or_non_sovereign_subject_holds = ROOT }
		}

		trigger = {
			rohibon_area = {
				type = all
				country_or_non_sovereign_subject_holds = ROOT
			}
			adenica_area = {
				type = all
				country_or_non_sovereign_subject_holds = ROOT
			}
			taran_plains_area = {
				type = all
				country_or_non_sovereign_subject_holds = ROOT
			}
			balmire_area = {
				type = all
				country_or_non_sovereign_subject_holds = ROOT
			}
			falsemire_area = {
				type = all
				country_or_non_sovereign_subject_holds = ROOT
			}
			verteben_area = {
				type = all
				country_or_non_sovereign_subject_holds = ROOT
			}
			valefort_area = {
				type = all
				country_or_non_sovereign_subject_holds = ROOT
			}
		}

		effect = {
			add_country_modifier = {
				name = adenica_restoration
				duration = 7300
			}
			add_prestige = 15
		}
	}

	adenica_from_lowly_page = {
		icon = mission_build_up_to_force_limit
		position = 6
		required_missions = {
			adenica_noble_knights
			adenica_knights_ride_again
			adenica_restored
		}

		provinces_to_highlight = {  }

		trigger = {
			prestige = 33
			custom_trigger_tooltip = {
				tooltip = adenica_from_lowly_page_trigger_tt
				check_variable = {
					which = adenicaChivalryMissionsCompleted
					value = 3
				}
			}
		}

		effect = {
			if = {
				limit = {
					mil = 6
				}
				add_mil_power = 100
			}
			else = {
				change_mil = 1
			}
			add_country_modifier = {
				name = adenica_page
				duration = -1
			}
		}
	}

	adenica_rebuilding_taranton_ruins = {
		icon = despot_stefans_legacy
		position = 7
		required_missions = {
			adenica_from_lowly_page
		}

		provinces_to_highlight = {
			province_id = 774
		}

		trigger = {
			774 = {
				development = 25
				has_courthouse_building_trigger = yes
				has_tax_building_trigger = yes
			}	
		}

		effect = {
			if = {
				limit = {
					774 = {
						has_fort_building_trigger = no
					}
				}
				774 = {
					add_building_construction = {
						building = fort_15th
						speed = 0.33
						cost = 0.33
					}
				}
			}
			else = {
				add_treasury = 100
			}
			add_country_modifier = {
				name = "building_spree"
				duration = 9125 #25 years
			}
		}
	}

	adenica_earnest_squire = {
		icon = mission_weather_the_troubles
		position = 8
		required_missions = {
			adenica_grand_hunt
			adenica_rebuilding_taranton_ruins
			adenica_horse_for_a_king
		}

		provinces_to_highlight = {  }

		trigger = {
			prestige = 50
			custom_trigger_tooltip = {
				tooltip = adenica_earnest_squire_trigger_tt
				check_variable = {
					which = adenicaChivalryMissionsCompleted
					value = 6
				}
			}
		}

		effect = {
			if = {
				limit = {
					mil = 6
				}
				add_mil_power = 200
			}
			else = {
				change_mil = 1
			}
			add_country_modifier = {
				name = adenica_squire
				duration = -1
			}
			custom_tooltip = adenica_replace_modifier
			hidden_effect = {
				remove_country_modifier = adenica_page
			}
		}
	}

	adenica_steel_and_horseflesh = {
		icon = revenge_for_nicopolis
		position = 10
		required_missions = {
			adenica_earnest_squire
		}

		provinces_to_highlight = {
			owner = {
				num_of_cavalry = ROOT
				capital_scope = {
					superregion = escann_superregion
				}
			}
		}

		trigger = {
			custom_trigger_tooltip = {
				tooltip = adenica_horseflesh_tt
				NOT = {
					any_known_country = {
						num_of_cavalry = ROOT
						capital_scope = {
							superregion = escann_superregion
						}
					}
				}
			}
			has_global_modifier_value = {
				which = cavalry_power
				value = 0.5
			}
		}

		effect = {
			add_country_modifier = {
				name = adenica_best_cav
				duration = 14600
			}
		}
	}

	adenica_knight_radiant = {
		icon = mission_rb_conquer_the_highlands
		position = 11
		required_missions = {
			adenica_demand_chivalric_oaths
			adenica_steel_and_horseflesh
			adenica_heart_of_chivalry
		}

		provinces_to_highlight = {  }

		trigger = {
			prestige = 75
			custom_trigger_tooltip = {
				tooltip = adenica_knight_radiant_trigger_tt
				check_variable = {
					which = adenicaChivalryMissionsCompleted
					value = 10
				}
			}
		}

		effect = {
			country_event = {
				id = flavor_adenica.40
			}
		}
	}

	adenica_reordering_court = {
		icon = mission_monarch_diplomacy
		position = 13
		required_missions = {
			adenica_knight_radiant
		}

		provinces_to_highlight = {  }

		trigger = {
			splendor = 200
			dip_power = 200
			mil_power = 200
			adm_power = 200
		}

		effect = {
			add_splendor = -200
			add_adm_power = -200
			add_dip_power = -200
			add_mil_power = -200
			if = {
				limit = { government = monarchy }
				add_government_reform = adenica_mortal_court
			}
			else = {
				add_country_modifier = {
					name = adenica_mortal_court_alt
					duration = -1
				}
			}
		}
	}

	adenica_forge_a_skylance = {
		icon = mission_smith
		position = 15
		required_missions = {
			adenica_reordering_court	
		}

		provinces_to_highlight = {  }

		trigger = {
			OR = {
				mithril = 1
				any_subject_country = {
					mithril = 1
				}
				any_ally = {
					mithril = 1
				}
			}
			OR = {
				custom_trigger_tooltip = {
					tooltip = adenica_skylance_tt
					OR = {
						has_ruler_flag = transmutation_2
						has_ruler_flag = transmutation_3
					}
				}
				if = {
					limit = {
						has_dlc = "Emperor"
					}
					estate_loyalty = {
						estate = estate_mages
						loyalty = 70
					}
				}
				else = {
					estate_loyalty = {
						estate = estate_mages
						loyalty = 55
					}
				}
				court_mage = 3
			}
			treasury = 1000
		}

		effect = {
			add_treasury = -1000
			add_country_modifier = {
				name = adenica_forging_skylance
				duration = 1095
			}
			hidden_effect = {
				country_event = {
					id = flavor_adenica.70
					days = 1095
				}
			}
		}
	}

	adenica_adeans_champion = {
		icon = league_of_the_public_weal
		position = 16
		required_missions = {
			adenica_forge_a_skylance
		}

		provinces_to_highlight = { }

		trigger = {
			mil = 5
			prestige = 99
			custom_trigger_tooltip = {
				tooltip = adenica_champion_tt
				check_variable = {
					which = adenicaWarsWon
					value = 40
				}
			}
			NOT = {
				has_country_modifier = adenica_forging_skylance
			}
			mil_power = 200
			dip_power = 200
			adm_power = 200
		}

		effect = {
			add_adm_power = -200
			add_dip_power = -200
			add_mil_power = -200
			custom_tooltip = adenica_replace_modifier
			hidden_effect = {
				remove_country_modifier = adenica_skylance_wielder
			}
			add_country_modifier = {
				name = adenica_champion
				duration = -1
			}
		}
	}
}


adenica_4_missions = { 
	slot = 4
	generic = no
	ai = yes 
	has_country_shield = yes
	potential = { tag = B58 }

	adenica_chivalric_faith = {
		icon = geneva_conventions
		position = 1
		required_missions = { }

		provinces_to_highlight = {  }

		trigger = {
			custom_trigger_tooltip = {
				tooltip = obj_force_converted_tooltip
				has_country_flag = force_converted
			}
			custom_trigger_tooltip = {
				tooltip = adenica_faith_tt
				check_variable = {
					which = adenicaReligiousWarsWon
					value = 10
				}
			}
			religion = regent_court
		}

		effect = {
			add_country_modifier = {
				name = adenica_faith
				duration = 7300
			}
			adenicaIncrementChivalryMissionCompleted = yes
			hidden_effect = {
				set_ruler_flag = adenica_faith_taken
			}
		}
	}
	
	adenica_chivalric_charity = {
		icon = geneva_conventions
		position = 2
		required_missions = { }

		provinces_to_highlight = {  }

		trigger = {
			num_of_owned_provinces_with = {
				value = 15
				has_tax_building_trigger =yes
			}
		}

		effect = {
			add_country_modifier = {
				name = adenica_charity
				duration = 7300
			}
			adenicaIncrementChivalryMissionCompleted = yes
			hidden_effect = {
				set_ruler_flag = adenica_charity_taken
			}
		}
	}

	adenica_knights_ride_again = {
		icon = mission_break_the_tatar_yoke
		position = 5
		required_missions = {
			adenica_confiscate_adenican_coursers
		}

		provinces_to_highlight = {  }

		trigger = {
			num_of_cavalry = 10
		}

		effect = {
			add_country_modifier = {
				name = adenica_knights_ride
				duration = 7300
			}
		}
	}

	adenica_horse_for_a_king = {
		icon = mission_protect_albania
		position = 7
		required_missions = {
			adenica_from_lowly_page
			adenica_pureblood_breeding
		}

		provinces_to_highlight = {  }

		trigger = {
			livestock = 7
			farm_estate = 3
		}

		effect = {
			hidden_effect = { set_country_flag = adenica_horse_event_unlocked }
			country_event = {
				id = flavor_adenica.10
			}
		}
	}

	adenica_da_strongest = {
		icon = mission_skull
		position = 9
		required_missions = {
			adenica_regent_court_loyalists
		}

		provinces_to_highlight = {  }

		trigger = {
			OR = {
				# Win 5 wars against orcs
				custom_trigger_tooltip = {
					tooltip = adenica_orc_wars_won_tt
					check_variable = {
						which = adenicaOrcWarsWon
						value = 5
					}
				}
				# No more orcish countires not Regent Court in Escann
				NOT = {
					any_known_country = {
						OR = {
							culture_group = orcish
							culture_is_half_orcish = yes
						}
						NOT = { religion = regent_court }
						capital_scope = { superregion = escann_superregion }
					}
				}
			}
		}

		effect = {
			every_known_country = {
				limit = {
					OR = {
						culture_group = orcish
						culture_is_half_orcish = yes
					}
					NOT = { religion = regent_court }
					capital_scope = {
						superregion = escann_superregion
					}
				}
				country_event = {
					id = flavor_adenica.80
				}
				ROOT = {
					add_dip_power = -33
					add_mil_power = -33
				}
			}
		}
	}

	adenica_heart_of_chivalry = {
		icon = mission_rb_trinity_college_dublin
		position = 10
		required_missions = { }

		provinces_to_highlight = {  }

		trigger = {
			774 = {
				development = 35
			}
			treasury = 1000
		}

		effect = {
			add_treasury = -1000
			774 = {
				add_permanent_province_modifier = {
					name = adenica_heart_of_chivalry
					duration = -1
				}
			}
		}
	}

	adenica_build_knights_academy = {
		icon = conquer_tuscany
		position = 11
		required_missions = {
			adenica_heart_of_chivalry
		}

		provinces_to_highlight = {
			province_id = 774
		}

		trigger = {
			774 = {
				owned_by = ROOT
				num_free_building_slots = 1
				has_building = university
				NOT = { has_construction = building }
			}
			years_of_income = 1
		}

		effect = {
			add_years_of_income = -1
			774 = {
				add_building_construction = {
					building = adenica_longlance_knights_academy
					speed = 1
					cost = 0
				}
			}
			hidden_effect = {
				country_event = {
					id = flavor_adenica.21
					days = 10950
					random = 3650
				}
			}
		}
	}

	adenica_dutiful_servent = {
		icon = mission_women_prayer
		position = 12
		required_missions = {
			adenica_knight_radiant
			adenica_honor_fallen
		}

		provinces_to_highlight = {  }

		trigger = {
			NOT = {
				mission_completed = adenica_righteous_spear
			}
			if = {
				limit = {
					has_dlc = "Emperor"
				}
				estate_loyalty = {
					estate = estate_church
					loyalty = 70
				}
				estate_influence = {
					estate = estate_church
					influence = 50
				}
			}
			else = {
				estate_loyalty = {
					estate = estate_church
					loyalty = 55
				}
				estate_influence = {
					estate = estate_church
					influence = 35
				}
			}
			
			num_of_religion = {
				religion = regent_court
				value = 0.9
			}

		}

		effect = {
			custom_tooltip = adenica_dutiful_servent_effect_tt
		}
	}

	adenica_adeans_favored_admin = {
		icon = mission_green_village
		position = 13
		required_missions = {
			adenica_dutiful_servent
		}

		provinces_to_highlight = {
			OR = {
				area = dostans_way_area
				area = oudeben_area
			}
		}

		trigger = {
			custom_trigger_tooltip = {
				tooltip = adenica_adeans_favored_admin_trigger_tt
				NOT = {
					any_known_country = {
						religion = regent_court
						total_development = ROOT
					}
				}
			}
			has_personal_deity = adean
			num_of_owned_provinces_with = {
				value = 20
				NOT = { devastation = 1 }
			}
			NOT = { average_effective_unrest = 1 }
		}

		effect = {
			add_country_modifier = {
				name = adenica_admin_1
				duration = -1
			}
		}
	}

	adenica_to_shepard_a_people = {
		icon = prosperity_for_all
		position = 14
		required_missions = {
			adenica_adeans_favored_admin
			adenica_reordering_court
		}

		provinces_to_highlight = {  }

		trigger = {
			num_of_owned_provinces_with = {
				value = 40
				has_tax_building_trigger = yes
			}
			num_of_owned_provinces_with = {
				value = 20
				has_courthouse_building_trigger = yes
			}
		}

		effect = {
			add_country_modifier = {
				name = adenica_admin_2
				duration = -1
			}
			custom_tooltip = adenica_replace_modifier
			hidden_effect = {
				remove_country_modifier = adenica_admin_1
			}
		}
	}

	adenica_adeanic_cannor_admin = {
		icon = show_piety
		position = 15
		required_missions = {
			adenica_corinite_overtures
			adenica_to_shepard_a_people
		}

		provinces_to_highlight = {
			owner = {
				capital_scope = {
					continent = europe
				}
				OR = {
					religion = corinite
					religion = ravelian
				}
			}
		}

		trigger = {
			custom_trigger_tooltip = {
				tooltip = adeanic_cannor_admin_tt
				NOT = {
					any_country = {
						capital_scope = {
							continent = europe
						}
						OR = {
							religion = corinite
							religion = ravelian
						}
					}
				}
			}
		}

		effect = {
			add_country_modifier = {
				name = adenica_admin_3
				duration = -1
			}
			custom_tooltip = adenica_replace_modifier
			hidden_effect = {
				remove_country_modifier = adenica_admin_2
			}
		}
	}

}

adenica_5_missions = { 
	slot = 5
	generic = no
	ai = yes 
	has_country_shield = yes
	potential = { tag = B58 }

	adenica_chivalric_valour = {
		icon = geneva_conventions
		position = 1
		required_missions = { }

		provinces_to_highlight = {  }

		trigger = {
			OR = {
				custom_trigger_tooltip = {
					tooltip = adenica_valor_tt
					check_variable = {
						which = adenicaWarsWon
						value = 15
					}
				}
				mil = 5
			}
			prestige = 75
		}

		effect = {
			add_country_modifier = {
				name = adenica_valour
				duration = 7300
			}
			adenicaIncrementChivalryMissionCompleted = yes
			hidden_effect = {
				set_ruler_flag = adenica_valour_taken
			}
		}
	}

	adenica_chivalric_fortitude = {
		icon = geneva_conventions
		position = 2
		required_missions = { }

		provinces_to_highlight = { }

		trigger = {
			num_of_owned_provinces_with = {
				value = 10
				has_fort_building_trigger = yes
			}
		}

		effect = {
			add_country_modifier = {
				name = adenica_fortitude
				duration = 7300
			}
			adenicaIncrementChivalryMissionCompleted = yes
			hidden_effect = {
				set_ruler_flag = adenica_fortitude_taken
			}
		}
	}

	adenica_confiscate_adenican_coursers = {
		icon = sav_union_with_naples
		position = 4
		required_missions = {
			adenica_foals_first_steps
		}

		provinces_to_highlight = {
			trade_goods = livestock
			base_production = 2
			owned_by = ROOT
		}

		trigger = {
			crown_land_share = 40
			OR = {
				army_organiser = 2
				army_reformer = 2
				commandant = 2
				grand_captain = 2
				recruitmaster = 2
				fortification_expert = 2
				quartermaster = 2
			}
			OR = {
				any_owned_province = {
					OR = {
						area = rohibon_area
						area = adenica_area
						area = taran_plains_area
					}
				}
				769 = { country_or_non_sovereign_subject_holds = ROOT }
			}
		}

		effect = {
			custom_tooltip = adenica_coursers_tt
			if = {
				limit = {
					769 = {
						trade_goods = livestock
						country_or_non_sovereign_subject_holds = ROOT
					}
				}
				hidden_effect = {
					every_owned_province = {
						limit = {
							trade_goods = livestock
							base_production = 2
							NOT = { province_id = 769 }
						}
						add_base_production = -1
						add_province_modifier = {
							name = adenica_confiscated_horses_mad
							duration = 7300
						}
						ROOT = {
							change_variable = {
								which = numLivestockProvinces
								value = 1
							}
						}
					}
				}
				while = {
					limit = { check_variable = { numLivestockProvinces = 0 } }
					subtract_variable = { numLivestockProvinces = 1 }
					769 = {
						add_base_production = 1
					}
				}
				769 = {
					add_permanent_province_modifier = {
						name = adenica_rohibon_herd
						duration = -1
					}
				}
			}
			else_if = {
				limit = {
					OR = {
						rohibon_area = {
							trade_goods = livestock
						}
						adenica_area = {
							trade_goods = livestock
						}
						taran_plains_area = {
							trade_goods = livestock
						}
					}
				}
				random_owned_province = {
					limit = {
						OR = {
							AND = {
								area = rohibon_area
								trade_goods = livestock
							}
							AND = {
								area = adenica_area
								trade_goods = livestock
							}
							AND = {
								area = taran_plains_area
								trade_goods = livestock
							}
						}
					}
					add_permanent_province_modifier = {
						name = adenica_rohibon_herd
						duration = -1
					}
				}
				hidden_effect = {
					every_owned_province = {
						limit = {
							trade_goods = livestock
							base_production = 2
							NOT = { has_province_modifier = adenica_rohibon_herd }
						}
						add_base_production = -1
						add_province_modifier = {
							name = adenica_confiscated_horses_mad
							duration = 7300
						}
						ROOT = {
							change_variable = {
								which = numLivestockProvinces
								value = 1
							}
						}
					}
				}
				while = {
					limit = { check_variable = { numLivestockProvinces = 0 } }
					subtract_variable = { numLivestockProvinces = 1 }
					random_owned_province = {
						limit = { has_province_modifier = adenica_rohibon_herd }
						add_base_production = 1
					}
				}
			}
			else = {
				hidden_effect = {
					every_owned_province = {
						limit = {
							trade_goods = livestock
							base_production = 2
							NOT = { province_id = 769 }
						}
						add_base_production = -1
						add_province_modifier = {
							name = adenica_confiscated_horses_mad
							duration = 7300
						}
						ROOT = {
							change_variable = {
								which = numLivestockProvinces
								value = 1
							}
						}
					}
				}
				while = {
					limit = { check_variable = { numLivestockProvinces = 0 } }
					subtract_variable = { numLivestockProvinces = 1 }
					769 = {
						add_base_production = 1
					}
				}
				769 = {
					add_permanent_province_modifier = {
						name = adenica_rohibon_herd
						duration = -1
					}
					change_trade_goods = livestock
				}
			}
			add_estate_loyalty = {
				estate = estate_nobles
				loyalty = -10
			}
		}
	}

	adenica_pureblood_breeding = {
		icon = mission_marwari_horses
		position = 6
		required_missions = {
			adenica_confiscate_adenican_coursers
		}

		provinces_to_highlight = {
			has_province_modifier = adenica_rohibon_herd
		}

		trigger = {
			any_owned_province = {
				development = 20
				has_building = farm_estate
				cavalry_in_province = 5
				has_province_modifier = adenica_rohibon_herd
			}
		}

		effect = {
			custom_tooltip = adenica_replace_modifier
			custom_tooltip = adenica_pureblood_breeding_tt
			hidden_effect = {
				random_owned_province = {
					limit = {
						has_province_modifier = adenica_rohibon_herd
						
					}
					remove_province_modifier = adenica_rohibon_herd
					add_permanent_province_modifier = {
						name = adenica_rohibon_purebloods
						duration = -1
					}
					kill_units = {
						who = owner
						type = cavalry
						amount = 5
					}
				}
			}
		}
	}

	adenica_white_in_a_bloodred_tide = {
		icon = mission_star_comet
		position = 7
		required_missions = { }

		provinces_to_highlight = { }

		trigger = {
			custom_trigger_tooltip = {
				tooltip = adenica_deluge_tt
				OR = {
					has_global_flag = crimson_deluge_is_over
					has_global_flag = crimson_deluge_is_actively_happening
	
				}
			}
			religion = regent_court
			advisor = theologian
		}

		effect = {
			custom_tooltip = adenica_weather_the_deluge
			tooltip = {
				add_country_modifier = {
					name = adenica_crimson_deluge_country_1
					duration = 3650
				}
				random_owned_province = {
					add_province_modifier = {
						name = adenica_crimson_deluge_province_1
						duration = 3650
					}
				}
			}
			custom_tooltip = adenica_weather_the_deluge_2
			tooltip = {
				add_country_modifier = {
					name = adenica_crimson_deluge_country_2
					duration = 3650
				}
				random_owned_province = {
					add_province_modifier = {
						name = adenica_crimson_deluge_province_2
						duration = 3650
					}
				}
			}
			custom_tooltip = adenica_weather_the_deluge_3
			tooltip = {
				add_stability_or_adm_power = yes
			}
			hidden_effect = {
				if = {
					limit = { has_global_flag = crimson_deluge_is_actively_happening }
					if = {
						limit = {
							num_of_missionaries = 1
							NOT = { num_of_missionaries = 2 }
						}
						add_country_modifier = {
							name = adenica_crimson_deluge_country_1
							duration = 3650
						}
						every_owned_province = {
							add_province_modifier = {
								name = adenica_crimson_deluge_province_1
								duration = 3650
							}
						}
					}
					if = {
						limit = {
							num_of_missionaries = 2
						}
						add_country_modifier = {
							name = adenica_crimson_deluge_country_2
							duration = 3650
						}
						every_owned_province = {
							add_province_modifier = {
								name = adenica_crimson_deluge_province_2
								duration = 3650
							}
						}
					}
				}
				else_if = {
					limit = { has_global_flag = crimson_deluge_is_over }
					add_stability_or_adm_power = yes
				}
			}
		}
	}

	adenica_regent_court_loyalists = {
		icon = restore_the_hospitallers
		position = 8
		required_missions = {
			adenica_white_in_a_bloodred_tide
		}

		provinces_to_highlight = { }

		trigger = {
			religion = regent_court
			OR = {
				calc_true_if = {
					amount = 3
					custom_trigger_tooltip = {
						tooltip = adenica_regent_court_loyalists_tt
						all_country = {
							religion = regent_court
							alliance_with = ROOT
						}
					}
				}
				AND = {
					hre_leagues_enabled = yes
					in_league = regent_court
					OR = {
						is_league_leader = yes
						any_ally = {
							is_league_leader = yes
						}
					}
				}
			}
		}

		effect = {
			add_yearly_manpower = 5
			add_country_modifier = {
				name = adenica_adean_loyalists
				duration = 7300
			}
		}
	}

	adenica_call_to_arms = {
		icon = trade_with_the_natives
		position = 9
		required_missions = {
			adenica_regent_court_loyalists
		}

		provinces_to_highlight = {  }

		trigger = {
			OR = {
				army_tradition = 60
				army_professionalism = 0.5
			}
			mil_power = 50
			stability = 2
		}

		effect = {
			add_mil_power = -50
			add_country_modifier = {
				name = adenica_recruitment
				duration = 1825
			}
			country_event = {
				id = flavor_adenica.50
			}
		}
	}

	adenica_court_triumphant = {
		icon = mission_subdue_rajputana
		position = 10
		required_missions = {
			adenica_call_to_arms
		}

		provinces_to_highlight = { }

		trigger = {
			has_country_modifier = hre_dominant_regent_court
		}

		effect = {
			add_prestige = 20
			add_country_modifier = {
				name = adenica_regent_court_victory
				duration = 7300
			}
		}
	}

	adenica_honor_fallen = {
		icon = mission_crowning
		position = 11
		required_missions = {
			adenica_court_triumphant
		}

		provinces_to_highlight = { }

		trigger = {
			is_at_war = no
			NOT = { war_exhaustion = 0.5 }
			manpower_percentage	= 0.9
		}

		effect = {
			country_event = {
				id = flavor_adenica.60
			}
		}
	}

	adenica_corinite_overtures = {
		icon = kingdom_of_heaven
		position = 14
		required_missions = {
			adenica_adeans_favored_admin
		}

		provinces_to_highlight = {
			OR = {
				AND = {
					area = castonath_area
					NOT = { religion = regent_court }
				}
				owner = {
					culture_group = escanni
					NOT = { religion = regent_court }
					capital_scope = {
						superregion = escann_superregion
					}
				}
			}
		}

		trigger = {
			custom_trigger_tooltip = {
				tooltip = adenica_adean_escann_tt
				NOT = {
					any_country = {
						culture_group = escanni
						capital_scope = {
							superregion = escann_superregion
						}
						NOT = { religion = regent_court }
					}
				}
			}
			castonath_area = {
				type = all
				religion = regent_court
			}
			custom_trigger_tooltip = {
				tooltip = adenica_diplo_rep_trigger_tt
				has_global_modifier_value = {
					which = diplomatic_reputation
					value = 5
				}
			}
		}

		effect = {
			custom_tooltip = adenica_adeanic_escann_admin_effect_tt
			hidden_effect = {
				set_global_flag = upgraded_adean_admin
			}
			every_country = {
				limit = { has_personal_deity = adean }
				change_personal_deity = adean_adenica_admin
			}
		}
	}
}