##BranchStart 0
EscannGob0 = {
	slot = 1
	generic = no
	ai = yes
	potential = {
		culture_group = goblin
		capital_scope = {
			OR = {
				region = forlorn_vale_region
				superregion = escann_superregion
				superregion = gerudia_superregion
			}
		}
		NOT = { map_setup = map_setup_random }
	}
	has_country_shield = yes
	
	##Mission Start
	goblin_borrowed_learning = {
		icon = mission_colonial
		required_missions {
			goblin_meat_wall
		}
		position = 2
		provinces_to_highlight = {
			##PROVINCESHIGHLIGHTCODE
		}
		trigger = {
			num_of_times_used_pillage_capital = 1
		}
		effect = {
			capital_scope = {
				add_next_institution_embracement = 15
			}
			add_country_modifier = {
				name = "goblin_learning_from_new_neighbors"
				duration = 5475
			}
		}
	}
	##Mission End
	##Mission Start
	goblin_ingenuity = {
		icon = mission_writing_book
		required_missions {
			goblin_borrowed_learning
		}
		position = 3
		provinces_to_highlight = {
			##PROVINCESHIGHLIGHTCODE
		}
		trigger = {
			has_institution = feudalism
		}
		effect = {
			change_innovativeness = 2
			add_country_modifier = {
				name = "goblin_escann_ingenuity"
				duration = 3650
			}
		}
	}
	##Mission End
	##Mission Start
	goblin_superiority = {
		icon = mission_have_manufactories
		required_missions {
			goblin_ingenuity
		}
		position = 5
		provinces_to_highlight = {
			owner = {
				is_neighbor_of = ROOT
			}
		}
		trigger = {
			any_neighbor_country = {
				tech_difference = 2
			} 
		}
		effect = {
			change_innovativeness = 5
			add_country_modifier = {
				name = "goblin_keeping_up"
				duration = 5475
			}
		}
	}
	##Mission End
	##Mission Start
	goblin_warmachine = {
		icon = mission_assemble_an_army
		required_missions {
			goblin_new_nation
		}
		position = 7
		provinces_to_highlight = {
			##PROVINCESHIGHLIGHTCODE
		}
		trigger = {
			army_size = 15
			num_of_artillery = 5
			innovativeness = 10
		}
		effect = {
			add_country_modifier = {
				name = "goblin_tools_for_the_army"
				duration = 9125
			}
		}
	}
	##Mission End
	##
	
}
##BranchEnd 0
##BranchStart 1
EscannGob1 = {
	slot = 2
	generic = no
	ai = yes
	potential = {
		culture_group = goblin
		capital_scope = {
			OR = {
				region = forlorn_vale_region
				superregion = escann_superregion
				superregion = gerudia_superregion
			}
		}
		NOT = { map_setup = map_setup_random }
	}
	has_country_shield = yes
	
	##Mission Start
	goblin_rest_of_us = {
		icon = mission_alliances
		required_missions {
			goblin_meat_wall
		}
		position = 2
		provinces_to_highlight = {
			owner = {
				has_country_modifier = monstrous_nation
			}
		}
		trigger = {
			OR = {
				any_ally = {
					has_country_modifier = monstrous_nation
				}
				any_rival_country = {
					has_country_modifier = monstrous_nation
					capital_scope = {
						controlled_by = ROOT
					}
				}
			}		
		}
		effect = {
			add_country_modifier = {
				name = "goblin_sharing_supplies"
				duration = 3650
			}
		}
	}
	##Mission End
	##Mission Start
	goblin_faith_means = {
		icon = mission_hands_praying
		required_missions {
			goblin_borrowed_learning
		}
		position = 3
		provinces_to_highlight = {
			##PROVINCESHIGHLIGHTCODE
		}
		trigger = {
			OR = {
				has_adopted_cult = cannorian_cult
				religion_group = cannorian
				religion_group = kheteratan
			}
		}
		effect = {
			change_government_reform_progress = 20
			add_country_modifier = {
				name = "goblin_reaching_out"
				duration = 7300
			}
		}
	}
	##Mission End
	##Mission Start
	goblin_learning_common = {
		icon = mission_asian_trader
		required_missions {
			goblin_faith_means
		}
		position = 4
		provinces_to_highlight = {
			##PROVINCESHIGHLIGHTCODE
		}
		trigger = {
			any_known_country = {
				technology_group = tech_cannorian
				has_opinion = {
					who = ROOT
					value = 0
				}
			}
		}
		effect = {
			change_government_reform_progress = 20
			add_dip_power = 100
			add_country_modifier = {
				name = "goblin_learning_common"
				duration = 9125
			}
		}
	}
	##Mission End
	##Mission Start
	goblin_wild_orcs = {
		icon = mission_iroquois_warriors
		required_missions {
			goblin_old_masters
		}
		position = 5
		provinces_to_highlight = {
			##PROVINCESHIGHLIGHTCODE
		}
		trigger = {
		prestige = 40
			innovativeness = 5
		}
		effect = {
			add_country_modifier = {
				name = "goblin_orcish_influx"
				duration = 3650
			}
			capital_scope = {
				add_orcish_minority_size_effect = yes
			}
		}
	}
	##Mission End
	##Mission Start
	goblin_old_cities = {
		icon = mission_crusade_for_varna
		required_missions {
			goblin_new_nation
		}
		position = 7
		provinces_to_highlight = {
			##PROVINCESHIGHLIGHTCODE
		}
		trigger = {
			num_of_cities = 15
			grown_by_development = 75
		}
		effect = {
			add_mil_power = 100
			country_event = { id = escanngoblin.1 days = 0 }
		}
	}
	##Mission End
	##
	
}
##BranchEnd 1
##BranchStart 2
EscannGob2 = {
	slot = 3
	generic = no
	ai = yes
	potential = {
		culture_group = goblin
		capital_scope = {
			OR = {
				region = forlorn_vale_region
				superregion = escann_superregion
				superregion = gerudia_superregion
			}
		}
		NOT = { map_setup = map_setup_random }
	}
	has_country_shield = yes
	
	##Mission Start
	goblin_meat_wall = {
		icon = mission_nah_the_enemy_way
		required_missions {
			
		}
		position = 1
		provinces_to_highlight = {
			##PROVINCESHIGHLIGHTCODE
		}
		trigger = {
			army_size_percentage = 0.9
			manpower_percentage = 0.50
		}
		effect = {
			add_country_modifier = {
				name = "goblin_force_to_defend"
				duration = 5475
			}
		}
	}
	##Mission End
	##Mission Start
	goblin_new_home = {
		icon = mission_sio_camp_circles
		required_missions {
			goblin_rest_of_us goblin_meat_wall goblin_remove_ambitious
		}
		position = 3
		provinces_to_highlight = {
			##PROVINCESHIGHLIGHTCODE
		}
		trigger = {
			num_of_cities = 5
		}
		effect = {
			add_adm_power = 50
			add_country_modifier = {
				name = "goblin_room_to_grow"
				duration = 3650
			}
		}
	}
	##Mission End
	##Mission Start
	goblin_old_masters = {
		icon = mission_kowtow
		required_missions {
			goblin_new_home
		}
		position = 4
		provinces_to_highlight = {
			owner = {
				TAG = ROOT
			}
		}
		trigger = {
			num_of_owned_provinces_with = {
				value = 1
				OR = {
					culture_group = orcish
					has_orcish_minority_trigger = yes
				}
			}
		}
		effect = {
			country_event = { id = escanngoblin.4 days = 0 }
		}
	}
	##Mission End
	##Mission Start
	goblin_new_nation = {
		icon = mission_monarch_in_throne_room
		required_missions {
			goblin_superiority goblin_old_masters goblin_selfish_among_us
		}
		position = 6
		provinces_to_highlight = {
			##PROVINCESHIGHLIGHTCODE
		}
		trigger = {
			is_tribal = no
		}
		effect = {
			add_prestige = 20
			capital_scope = {
				add_base_tax = 1
				add_base_production = 1
				add_base_manpower = 1
			}
			add_country_modifier = {
				name = "goblin_settling_down"
				duration = 7300
			}
		}
	}
	##Mission End
	##Mission Start
	goblin_survivors = {
		icon = mission_unite_home_region
		required_missions {
			goblin_warmachine goblin_old_cities goblin_pride goblin_place_in_this_world
		}
		position = 8
		provinces_to_highlight = {
			##PROVINCESHIGHLIGHTCODE
		}
		trigger = {
			development_in_provinces = {
				value = 125
			}
		}
		effect = {
			if = {
				limit = {
					tag = B43
				}
			add_country_modifier = {
				name = "goblin_flying_hound_legacy"
				duration = -1
			}
			}
			if = {
				limit = {
					tag = B41
				}
			add_country_modifier = {
				name = "goblin_earworm_legacy"
				duration = -1
			}
			}
			if = {
				limit = {
					tag = B42
				}
			add_country_modifier = {
				name = "goblin_groundhawk_legacy"
				duration = -1
			}
			}
			if = {
				limit = {
					tag = B44
				}
			add_country_modifier = {
				name = "goblin_flung_head_legacy"
				duration = -1
			}
			}
			if = {
				limit = {
					tag = B46
				}
			add_country_modifier = {
				name = "goblin_grasshopper_muncher_legacy"
				duration = -1
			}
			}
			if = {
				limit = {
					tag = B45
				}
			add_country_modifier = {
				name = "goblin_headwearer_legacy"
				duration = -1
			}
			}
			if = {
				limit = {
					tag = Z20
				}
			add_country_modifier = {
				name = "goblin_hideguzzler_legacy"
				duration = -1
			}
			}
		}
	}
	##Mission End
	##
	
}
##BranchEnd 2
##BranchStart 3
EscannGob3 = {
	slot = 4
	generic = no
	ai = yes
	potential = {
		culture_group = goblin
		capital_scope = {
			OR = {
				region = forlorn_vale_region
				superregion = escann_superregion
				superregion = gerudia_superregion
			}
		}
		NOT = { map_setup = map_setup_random }
	}
	has_country_shield = yes
	
	##Mission Start
	goblin_remove_ambitious = {
		icon = mission_fire_judgement
		required_missions {
			
		}
		position = 2
		provinces_to_highlight = {
			##PROVINCESHIGHLIGHTCODE
		}
		trigger = {
			stability = 1
			legitimacy = 100
			prestige = 20
		}
		effect = {
			add_adm_power = 75
			add_country_modifier = {
				name = "goblin_no_more_backstabbing"
				duration = 5475
			}
		}
	}
	##Mission End
	##Mission Start
	goblin_safe_homes = {
		icon = mission_sw_paquime
		required_missions {
			goblin_remove_ambitious
		}
		position = 3
		provinces_to_highlight = {
			##PROVINCESHIGHLIGHTCODE
		}
		trigger = {
			capital_scope = {
				fort_level = 2
			}
		}
		effect = {
			add_country_modifier = {
				name = "goblin_safe_homes"
				duration = 5475
			}
		}
	}
	##Mission End
	##Mission Start
	goblin_selfish_among_us = {
		icon = mission_african_gold
		required_missions {
			goblin_safe_homes
		}
		position = 5
		provinces_to_highlight = {
			##PROVINCESHIGHLIGHTCODE
		}
		trigger = {
			share_of_starting_income = 2.0
		}
		effect = {
			country_event = { id = escanngoblin.2 days = 0 }
		}
	}
	##Mission End
	##Mission Start
	goblin_pride = {
		icon = mission_hanseatic_city
		required_missions {
			goblin_new_nation
		}
		position = 7
		provinces_to_highlight = {
			##PROVINCESHIGHLIGHTCODE
		}
		trigger = {
			num_of_owned_provinces_with = {
				value = 5
				base_production = 6
			}
		}
		effect = {
			add_country_modifier = {
				name = "goblin_growing_industry"
				duration = 5475
			}
		}
	}
	##Mission End
	##
	
}

##BranchEnd 3
##BranchStart 4
EscannGob4 = {
	slot = 5
	generic = no
	ai = yes
	potential = {
		culture_group = goblin
		capital_scope = {
			OR = {
				region = forlorn_vale_region
				superregion = escann_superregion
				superregion = gerudia_superregion
			}
		}
		NOT = { map_setup = map_setup_random }
	}
	has_country_shield = yes
	
	##Mission Start
	goblin_edible_things = {
		icon = mission_rb_conquer_wales
		required_missions {
			
		}
		position = 1
		provinces_to_highlight = {
			##PROVINCESHIGHLIGHTCODE
		}
		trigger = {
			num_of_owned_provinces_with = {
				value = 5
				OR = {
					trade_goods = fur
					trade_goods = wine
					trade_goods = fish
					trade_goods = livestock
					trade_goods = grain
				}
			}
		}
		effect = {
			change_government_reform_progress = 10
			add_country_modifier = {
				name = "goblin_rich_harvests"
				duration = 5475
			}
		}
	}
	##Mission End
	##Mission Start
	goblin_shiny_metals = {
		icon = mission_war_chest
		required_missions {
			
		}
		position = 2
		provinces_to_highlight = {
			##PROVINCESHIGHLIGHTCODE
		}
		trigger = {
			num_of_owned_provinces_with = {
				value = 1
				OR = {
					trade_goods = iron
					trade_goods = copper
				}
			}
		}
		effect = {
			change_government_reform_progress = 10
			add_country_modifier = {
				name = "goblin_gobbo_metallurgy"
				duration = 5475
			}
		}
	}
	##Mission End
	##Mission Start
	goblin_weapons_fit = {
		icon = mission_cannons_firing
		required_missions {
			
		}
		position = 3
		provinces_to_highlight = {
			##PROVINCESHIGHLIGHTCODE
		}
		trigger = {
			mil_tech = 7
			innovativeness = 5
		}
		effect = {
			change_government_reform_progress = 20
			add_country_modifier = {
				name = "goblin_bombflingers"
				duration = 5475
			}
		}
	}
	##Mission End
	##Mission Start
	goblin_fighting_like_a_goblin = {
		icon = mission_control_unrest
		required_missions {
			goblin_safe_homes
		}
		position = 4
		provinces_to_highlight = {
			##PROVINCESHIGHLIGHTCODE
		}
		trigger = {
			any_known_country = {
				war_with = ROOT
				army_strength = {
					who = ROOT
					value = 1.5
				}
			}
		}
		effect = {
			add_country_modifier = {
				name = "goblin_fighting_like_a_goblin"
				duration = 7300
			}
		}
	}
	##Mission End
	##Mission Start
	goblin_neighbors_usefulness = {
		icon = mission_trade_company_region_abroad
		required_missions {
			goblin_selfish_among_us
		}
		position = 6
		provinces_to_highlight = {
			##PROVINCESHIGHLIGHTCODE
		}
		trigger = {
			OR = {
				811 = { is_strongest_trade_power = ROOT }
				840 = { is_strongest_trade_power = ROOT }
				785 = { is_strongest_trade_power = ROOT }
				229 = { is_strongest_trade_power = ROOT }
				872 = { is_strongest_trade_power = ROOT }
				888 = { is_strongest_trade_power = ROOT }
			}
		}
		effect = {
			add_years_of_income = 0.5
			add_country_modifier = {
				name = "goblin_shrewd_traders"
				duration = 7300
			}
		}
	}
	##Mission End
	##Mission Start
	goblin_place_in_this_world = {
		icon = mission_candide_letter
		required_missions {
			goblin_new_nation
		}
		position = 7
		provinces_to_highlight = {
			##PROVINCESHIGHLIGHTCODE
		}
		trigger = {
			has_institution = renaissance
		}
		effect = {
			country_event = { id = escanngoblin.3 days = 0 }
		}
	}
	##Mission End
	##
	
}
##BranchEnd 4
