
vanrahar_0 = {
	slot = 1
	generic = no
	ai = yes
	has_country_shield = yes
	
	potential = {
		OR = {
			tag = R41
			tag = R43
			tag = R45
			tag = R50
			tag = R77
		}
	}
	
	vanrahar_0_into_inner_rahen = {
		icon = mission_fortify_mandu
		ai = yes
		position = 3
		
		required_missions = {
			vanrahar_1_take_the_western_jungle
		}
		
		provinces_to_highlight = {
			OR = {
				province_id = 4426
				province_id = 4427
				province_id = 4428
				
				province_id = 4385
				province_id = 4379
				province_id = 4368
				province_id = 4412
				province_id = 4414
				province_id = 4429
			}
			NOT = {
				country_or_non_sovereign_subject_holds = ROOT
			}
		}
		
		trigger = {
			4426 = { country_or_non_sovereign_subject_holds = ROOT }
			4427 = { country_or_non_sovereign_subject_holds = ROOT }
			4428 = { country_or_non_sovereign_subject_holds = ROOT }
			
			4385 = { country_or_non_sovereign_subject_holds = ROOT }
			4379 = { country_or_non_sovereign_subject_holds = ROOT }
			4368 = { country_or_non_sovereign_subject_holds = ROOT }
			4412 = { country_or_non_sovereign_subject_holds = ROOT }
			4414 = { country_or_non_sovereign_subject_holds = ROOT }
			4429 = { country_or_non_sovereign_subject_holds = ROOT }
		}
		
		effect = {
			upper_dhenbasana_area = { add_province_modifier = { name = vanrahar_new_harimari_settlers duration = 18250 } }
			4379 = { add_province_modifier = { name = vanrahar_new_harimari_settlers duration = 18250 } }
			4385 = { add_province_modifier = { name = vanrahar_new_harimari_settlers duration = 18250 } }
			south_marutha_area = { 
				limit = {
					NOT = { is_core = ROOT }
					NOT = { owned_by = ROOT }
				}
				add_permanent_claim = ROOT
			}
			pasiragha_area = { 
				limit = {
					NOT = { is_core = ROOT }
					NOT = { owned_by = ROOT }
				}
				add_permanent_claim = ROOT
			}
		}
	}
	
	vanrahar_0_take_the_western_kingdom = {
		icon = mission_conquer_nagaur
		ai = yes
		position = 5
		
		required_missions = {
			vanrahar_0_into_inner_rahen
		}
		
		provinces_to_highlight = {
			OR = {
				province_id = 4434
				province_id = 4435
				province_id = 4436
			}
			NOT = {
				country_or_non_sovereign_subject_holds = ROOT
			}
		}
		
		trigger = {
			4434 = { country_or_non_sovereign_subject_holds = ROOT }
			4435 = { country_or_non_sovereign_subject_holds = ROOT }
			4436 = { country_or_non_sovereign_subject_holds = ROOT }
		}
		
		effect = {
			4434 = { add_province_modifier = { name = vanrahar_new_harimari_settlers duration = 18250 } }
			4435 = { add_province_modifier = { name = vanrahar_new_harimari_settlers duration = 18250 } }
			4436 = { add_province_modifier = { name = vanrahar_new_harimari_settlers duration = 18250 } }
			south_ghankedhen_area = {
				limit = {
					NOT = { is_core = ROOT }
					NOT = { owned_by = ROOT }
				}
				add_permanent_claim = ROOT
			}
			north_ghankedhen_area = {
				limit = {
					NOT = { is_core = ROOT }
					NOT = { owned_by = ROOT }
				}
				add_permanent_claim= ROOT
			}
			if = {
				limit = {
					4446 = {
						NOT = { is_core = ROOT }
						NOT = { owned_by = ROOT }
					}
				}
				4446 = {
					add_permanent_claim = ROOT
				}
			}
			avhavubhiya_area = {
				limit = {
					NOT = { is_core = ROOT }
					NOT = { owned_by = ROOT }
				}
				add_permanent_claim = ROOT
			}
			sarkhashabid_area = {
				limit = {
					NOT = { is_core = ROOT }
					NOT = { owned_by = ROOT }
				}
				add_permanent_claim = ROOT
			}
			ascension_cape_area = {
				limit = {
					NOT = { is_core = ROOT }
					NOT = { owned_by = ROOT }
				}
				add_permanent_claim = ROOT
			}
		}
	}
	
	vanrahar_1_secure_the_coast = {
		icon = mission_invade_gujarat
		ai = yes
		position = 6
		
		required_missions = {
			vanrahar_0_take_the_western_kingdom
		}
		
		provinces_to_highlight = {
			OR = {
				area = avhavubhiya_area
				area = sarkhashabid_area
				province_id = 4369
				province_id = 4372
				province_id = 4380
			}
			NOT = {
				country_or_non_sovereign_subject_holds = ROOT
			}
		}
		
		trigger = {
			avhavubhiya_area = { type = all country_or_non_sovereign_subject_holds = ROOT }
			sarkhashabid_area = { type = all country_or_non_sovereign_subject_holds = ROOT }
			4369 = { country_or_non_sovereign_subject_holds = ROOT }
			4372 = { country_or_non_sovereign_subject_holds = ROOT }
			4380 = { country_or_non_sovereign_subject_holds = ROOT }
		}
		
		effect = {
			davharral_area = {
				limit = {
					NOT = { is_core = ROOT }
					NOT = { owned_by = ROOT }
				}
				add_permanent_claim = ROOT
			}
			if = {
				limit = { 
					2923 = {
						NOT = { is_core = ROOT }
						NOT = { owned_by = ROOT }
					}
				}
				2923 = {
					add_permanent_claim = ROOT
				}
			}
			avhavubhiya_area = { add_province_modifier = { name = vanrahar_new_harimari_settlers duration = 18250 } }
			sarkhashabid_area = { add_province_modifier = { name = vanrahar_new_harimari_settlers duration = 18250 } }
			
			add_dip_power = 100
		}
	}
	
	vanrahar_1_establish_western_protectorates = {
		icon = mission_accomodate_the_rajputs
		ai = yes
		position = 7
		
		required_missions = {
			vanrahar_1_secure_the_coast
		}
		
		provinces_to_highlight = {
			OR = {
				area = davharral_area
				province_id = 2923
			}
			NOT = {
				country_or_non_sovereign_subject_holds = ROOT
			}
		}
		
		trigger = {
			davharral_area = { type = all country_or_non_sovereign_subject_holds = ROOT }
			2923 = { country_or_non_sovereign_subject_holds = ROOT }
		}
		
		effect = {
			add_adm_power = 100
			add_dip_power = 100
			davharral_area = { add_province_modifier = { name = vanrahar_new_harimari_settlers duration = 18250 } }
		}
	}
}


vanrahar_1 = {
	slot = 2
	generic = no
	ai = yes
	has_country_shield = yes
	
	potential = {
		OR = {
			tag = R41
			tag = R43
			tag = R45
			tag = R50
			tag = R77
		}
	}
	
	vanrahar_1_establish_strength = {
		icon = mission_annex_prome
		ai = yes
		position = 1
		
		trigger = {
			army_size_percentage = 1
		}
		
		effect = {
			shenral_area = { 
				limit = {
					NOT = { is_core = ROOT }
					NOT = { owned_by = ROOT }
				}
				add_permanent_claim = ROOT
			}
			harimars_cradle_area = { 
				limit = {
					NOT = { is_core = ROOT }
					NOT = { owned_by = ROOT }
				}
				add_permanent_claim = ROOT
			}
			bharagha_area = { 
				limit = {
					NOT = { is_core = ROOT }
					NOT = { owned_by = ROOT }
				}
				add_permanent_claim = ROOT
			}
			tujgal_area = { 
				limit = {
					NOT = { is_core = ROOT }
					NOT = { owned_by = ROOT }
				}
				add_permanent_claim = ROOT
			}
			rhamirta_area = { 
				limit = {
					NOT = { is_core = ROOT }
					NOT = { owned_by = ROOT }
				}
				add_permanent_claim = ROOT
			}
		}
	}
	
	vanrahar_1_take_the_western_jungle = {
		icon = mission_conquer_bengal_tau
		ai = yes
		position = 2
		
		required_missions = {
			vanrahar_1_establish_strength
		}
		
		provinces_to_highlight = {
			OR = {
				area = harimars_cradle_area
				province_id = 4378
				province_id = 4394
			}
			NOT = {
				country_or_non_sovereign_subject_holds = ROOT
			}
		}
		
		trigger = {
			harimars_cradle_area = { type = all country_or_non_sovereign_subject_holds = ROOT }
			4378 = { country_or_non_sovereign_subject_holds = ROOT }
			4394 = { country_or_non_sovereign_subject_holds = ROOT }
		}
		
		effect = {
			upper_dhenbasana_area = { 
				limit = {
					NOT = { is_core = ROOT }
					NOT = { owned_by = ROOT }
				}
				add_permanent_claim = ROOT
			}
			if = {
				limit = { 
					4412 = {
						NOT = { is_core = ROOT }
						NOT = { owned_by = ROOT }
					}
				}
				4412 = {
					add_permanent_claim = ROOT
				}
			}
			if = {
				limit = { 
					4414 = {
						NOT = { is_core = ROOT }
						NOT = { owned_by = ROOT }
					}
				}
				4414 = {
					add_permanent_claim = ROOT
				}
			}
			if = {
				limit = { 
					4429 = {
						NOT = { is_core = ROOT }
						NOT = { owned_by = ROOT }
					}
				}
				4429 = {
					add_permanent_claim = ROOT
				}
			}
		}
	}
	
	vanrahar_1_make_the_jungle_our_own = {
		icon = mission_conquer_bengal_dlh
		ai = yes
		position = 3
		
		required_missions = {
			vanrahar_1_take_the_western_jungle
			vanrahar_2_conquer_the_eastern_jungle
		}
		
		trigger = {
			num_of_owned_provinces_with = {
				value = 10
				base_manpower = 3
				has_terrain = jungle
			}
			num_of_owned_provinces_with = {
				value = 3
				fort_level = 2
				has_terrain = jungle
			}
		}
		
		effect = {
			harimars_cradle_area = {
				limit = { owned_by = ROOT }
				add_province_modifier = {
					name = vanrahar_our_jungle
					duration = -1
				}
			}
			bharagha_area = {
				limit = { owned_by = ROOT }
				add_province_modifier = {
					name = vanrahar_our_jungle
					duration = -1
				}
			}
			tujgal_area = {
				limit = { owned_by = ROOT }
				add_province_modifier = {
					name = vanrahar_our_jungle
					duration = -1
				}
			}
			dhenbasana_estuary_area = {
				limit = { owned_by = ROOT }
				add_province_modifier = {
					name = vanrahar_our_jungle
					duration = -1
				}
			}
		}
	}
	
	vanrahar_1_expand_high_gods_archeology = {
		icon = mission_conquer_rewakantha
		ai = yes
		position = 4
		
		required_missions = {
			vanrahar_1_make_the_jungle_our_own
		}
		
		provinces_to_highlight = {
			province_id = 4384
		}
		
		trigger = {
			4384 = {
				owned_by = ROOT
				base_production = 4
			}
			treasury = 100
			adm_power = 100
			dip_power = 100
		}
		
		effect = {
			if = {
				limit = { 4384 = { NOT = { trade_goods = precursor_relics } } }
				4384 = { change_trade_goods = precursor_relics }
			}
			add_treasury = -100
			add_adm_power = -100
			add_dip_power = -100
			add_country_modifier = {
				name = vanrahar_secrets_of_the_high_gods
				duration = 9125 #25 years
			}
		}
	}
	
	# vanrahar_1_the_truth_the_high_gods = {
		# icon = mission_chakravarti
		# ai = yes
		# position = 5
		
		# required_missions = {
			# vanrahar_1_expand_high_gods_archeology
		# }
		
		# provinces_to_highlight = {
			# province_id = 4384
		# }
		
		# trigger = {
			# 4384 = {
				# owned_by = ROOT
				# development = 20
			# }
			# treasury = 500
			# adm_power = 200
			# dip_power = 200
			# mil_power = 200
		# }
		
		# effect = {
			# add_treasury = -500
			# add_adm_power = -200
			# add_dip_power = -200
			# add_mil_power = -200
			# if = {
				# limit = { 4384 = { NOT = { has_province_modifier = vanrahar_the_eye_of_ascension } } }
				# 4384 = {
					# add_permanent_province_modifier = {
						# name = vanrahar_the_eye_of_ascension
						# duration = -1
					# }
				# }
			# }
			# else = {
				# add_adm_tech = 1
				# add_dip_tech = 1
				# add_mil_tech = 1
			# }
		# }
	# }
	
	vanrahar_0_tribal_subjugation = {
		icon = mission_manchu_warrior
		ai = yes
		position = 6
		
		required_missions = {
			vanrahar_0_take_the_western_kingdom
		}
		
		provinces_to_highlight = {
			OR = {
				area = north_ghankedhen_area
				province_id = 4439
				province_id = 4440
				province_id = 4441
				province_id = 4442
				province_id = 4446
			}
			NOT = {
				country_or_non_sovereign_subject_holds = ROOT
			}
		}
		
		trigger = {
			north_ghankedhen_area = { type = all country_or_non_sovereign_subject_holds = ROOT }
			4439 = { country_or_non_sovereign_subject_holds = ROOT }
			4440 = { country_or_non_sovereign_subject_holds = ROOT }
			4441 = { country_or_non_sovereign_subject_holds = ROOT }
			4442 = { country_or_non_sovereign_subject_holds = ROOT }
			4446 = { country_or_non_sovereign_subject_holds = ROOT }
		}
		
		effect = {
			define_advisor = {
				type = theologian
				skill = 2
				culture = ghankedhen
				location = 4444
				discount = yes
			}
			add_adm_power = 100
		}
	}
	
	vanrahar_2_overlord_of_dhujat = {
		icon = mission_unite_hindustan
		ai = yes
		position = 7
		
		required_missions = {
			vanrahar_2_dominate_the_lower_kharunyana
		}
		
		provinces_to_highlight = {
			OR = {
				area = khirnadhiman_area
				area = tughayasa_area
				area = pordhatti_area
			}
			NOT = {
				country_or_non_sovereign_subject_holds = ROOT
			}
		}
		
		trigger = {
			tughayasa_area = { type = all country_or_non_sovereign_subject_holds = ROOT }
			pordhatti_area = { type = all country_or_non_sovereign_subject_holds = ROOT }
			khirnadhiman_area = { type = all country_or_non_sovereign_subject_holds = ROOT }
		}
		
		effect = {
			add_country_modifier = {
				name = vanrahar_conqueror_of_the_porcelain_cities
				duration = 9125 #25 years
			}
			dhujat_region = { 
				limit = {
					NOT = { is_core = ROOT }
					NOT = { owned_by = ROOT }
				}
				add_permanent_claim = ROOT
			}
		}
	}
	
	vanrahar_1_the_royal_harimari = {
		icon = mission_tree_fishing
		ai = yes
		position = 8
		
		required_missions = {
			vanrahar_1_establish_western_protectorates
			vanrahar_2_overlord_of_dhujat
		}
		
		trigger = {
			num_of_owned_provinces_with = {
				value = 50
				culture = royal_harimari
			}
		}
		
		effect = {
			add_stability = 2
			add_country_modifier = {
				name = vanrahar_the_rule_of_the_royal_harimari
				duration = 7300
			}
		}
	}
}


vanrahar_2 = {
	slot = 3
	generic = no
	ai = yes
	has_country_shield = yes
	
	potential = {
		OR = {
			tag = R41
			tag = R43
			tag = R45
			tag = R50
			tag = R77
		}
	}
	
	vanrahar_2_conquer_the_eastern_jungle = {
		icon = mission_clear_the_delta
		ai = yes
		position = 2
		
		required_missions = {
			vanrahar_1_establish_strength
		}
		
		provinces_to_highlight = {
			OR = {
				area = bharagha_area
				province_id = 4387
				province_id = 4388
				province_id = 4390
			}
			NOT = {
				country_or_non_sovereign_subject_holds = ROOT
			}
		}
		
		trigger = {
			bharagha_area = { type = all country_or_non_sovereign_subject_holds = ROOT }
			4387 = { country_or_non_sovereign_subject_holds = ROOT }
			4388 = { country_or_non_sovereign_subject_holds = ROOT }
			4390 = { country_or_non_sovereign_subject_holds = ROOT }
		}
		
		effect = {
			dhenbasana_estuary_area = { 
				limit = {
					NOT = { is_core = ROOT }
					NOT = { owned_by = ROOT }
				}
				add_permanent_claim = ROOT
			}
			lower_dhenbasana_area = { 
				limit = {
					NOT = { is_core = ROOT }
					NOT = { owned_by = ROOT }
				}
				add_permanent_claim = ROOT
			}
			if = {
				limit = { 
					4410 = {
						NOT = { is_core = ROOT }
						NOT = { owned_by = ROOT }
					}
				}
				4410 = {
					add_permanent_claim = ROOT
				}
			}
			if = {
				limit = { 
					4405 = {
						NOT = { is_core = ROOT }
						NOT = { owned_by = ROOT }
					}
				}
				4405 = {
					add_permanent_claim = ROOT
				}
			}
			if = {
				limit = { 
					4411 = {
						NOT = { is_core = ROOT }
						NOT = { owned_by = ROOT }
					}
				}
				4411 = {
					add_permanent_claim = ROOT
				}
			}
		}
	}
	
	vanrahar_2_sieze_the_floating_cities = {
		icon = mission_demand_garjat_fealty
		ai = yes
		position = 3
		
		required_missions = {
			vanrahar_2_conquer_the_eastern_jungle
		}
		
		provinces_to_highlight = {
			OR = {
				area = lower_dhenbasana_area
				province_id = 4393
				province_id = 4381
				province_id = 4404
				province_id = 4405
				province_id = 4410
			}
			NOT = {
				country_or_non_sovereign_subject_holds = ROOT
			}
		}
		
		trigger = {
			lower_dhenbasana_area = { type = all country_or_non_sovereign_subject_holds = ROOT }
			4393 = { country_or_non_sovereign_subject_holds = ROOT }
			4381 = { country_or_non_sovereign_subject_holds = ROOT }
			4404 = { country_or_non_sovereign_subject_holds = ROOT }
			4405 = { country_or_non_sovereign_subject_holds = ROOT }
			4410 = { country_or_non_sovereign_subject_holds = ROOT }
		}
		
		effect = {
			lower_dhenbasana_area = { add_province_modifier = { name = vanrahar_new_harimari_settlers duration = 18250 } }
			kharunyana_estuary_area = { 
				limit = {
					NOT = { is_core = ROOT }
					NOT = { owned_by = ROOT }
				}
				add_permanent_claim = ROOT
			}
			satarsaya_area = { 
				limit = {
					NOT = { is_core = ROOT }
					NOT = { owned_by = ROOT }
				}
				add_permanent_claim = ROOT
			}
			east_rajnadhaga_area = { 
				limit = {
					NOT = { is_core = ROOT }
					NOT = { owned_by = ROOT }
				}
				add_permanent_claim = ROOT
			}
			if = {
				limit = { 
					4407 = {
						NOT = { is_core = ROOT }
						NOT = { owned_by = ROOT }
					}
				}
				4407 = {
					add_permanent_claim = ROOT
				}
			}
			maharaaja_area = { 
				limit = {
					NOT = { is_core = ROOT }
					NOT = { owned_by = ROOT }
				}
				add_permanent_claim = ROOT
			}
			khiraspid_area = { 
				limit = {
					NOT = { is_core = ROOT }
					NOT = { owned_by = ROOT }
				}
				add_permanent_claim = ROOT
			}
			keyattordha_area = { 
				limit = {
					NOT = { is_core = ROOT }
					NOT = { owned_by = ROOT }
				}
				add_permanent_claim = ROOT
			}
		}
	}
	
	vanrahar_2_dominate_the_lower_kharunyana = {
		icon = mission_grand_bengali_shipyards
		ai = yes
		position = 6
		
		required_missions = {
			vanrahar_2_sieze_the_floating_cities
		}
		
		provinces_to_highlight = {
			OR = {
				area = khiraspid_area
				province_id = 4496
				province_id = 4493
			}
			NOT = {
				country_or_non_sovereign_subject_holds = ROOT
			}
		}
		
		trigger = {
			khiraspid_area = { type = all country_or_non_sovereign_subject_holds = ROOT }
			4496 = { country_or_non_sovereign_subject_holds = ROOT }
			4493 = { country_or_non_sovereign_subject_holds = ROOT }
		}
		
		effect = {
			khiraspid_area = { add_province_modifier = { name = vanrahar_new_harimari_settlers duration = 18250 } }
			tughayasa_area = { 
				limit = {
					NOT = { is_core = ROOT }
					NOT = { owned_by = ROOT }
				}
				add_permanent_claim = ROOT
			}
			pordhatti_area = { 
				limit = {
					NOT = { is_core = ROOT }
					NOT = { owned_by = ROOT }
				}
				add_permanent_claim = ROOT
			}
			khirnadhiman_area = { 
				limit = {
					NOT = { is_core = ROOT }
					NOT = { owned_by = ROOT }
				}
				add_permanent_claim = ROOT
			}
			reanthung_area = { 
				limit = {
					NOT = { is_core = ROOT }
					NOT = { owned_by = ROOT }
				}
				add_permanent_claim = ROOT
			}
			li_btei_area = { 
				limit = {
					NOT = { is_core = ROOT }
					NOT = { owned_by = ROOT }
				}
				add_claim = ROOT
			}
			phangban_area = { 
				limit = {
					NOT = { is_core = ROOT }
					NOT = { owned_by = ROOT }
				}
				add_claim = ROOT
			}
			semphrerong_area = { 
				limit = {
					NOT = { is_core = ROOT }
					NOT = { owned_by = ROOT }
				}
				add_claim = ROOT
			}
		}
	}
	
	vanrahar_3_punish_the_rebel = {
		icon = mission_spoils_of_war
		ai = yes
		position = 6
		
		required_missions = {
			vanrahar_2_dominate_the_lower_kharunyana
		}
		
		provinces_to_highlight = {
			province_id = 4420
		}
		
		trigger = {
			4420 = { owned_by = ROOT }
		}
		
		effect = {
			4420 = {
				add_base_tax = -6
				add_base_production = -6
				add_base_manpower = -6
				add_devastation = 100
				change_culture = royal_harimari
			}
			capital_scope = {
				area = {
					add_base_tax = 2
					add_base_production = 2
					add_base_manpower = 2
				}
			}
			add_treasury = 1000
		}
	}
	
	vanrahar_3_across_the_river = {
		icon = mission_magadna_and_varanasi
		ai = yes
		position = 7
		
		required_missions = {
			vanrahar_3_punish_the_rebel
		}
		
		provinces_to_highlight = {
			OR = {
				region = bomdan_region
			}
			NOT = {
				country_or_non_sovereign_subject_holds = ROOT
			}
		}
		
		trigger = {
			num_of_owned_provinces_with = {
				value = 10
				OR = {
					region = bomdan_region
				}
			}
		}
		
		effect = {
			add_country_modifier = {
				name = vanrahar_capturing_haless
				duration = 7300 #20 years
			}
			add_adm_power = 100
		}
	}
}


vanrahar_3 = {
	slot = 4
	generic = no
	ai = yes
	has_country_shield = yes
	
	potential = {
		OR = {
			tag = R41
			tag = R43
			tag = R45
			tag = R50
			tag = R77
		}
	}
	
	vanrahar_3_trials_of_strength = {
		icon = mission_unite_west_india
		ai = yes
		position = 2
		
		trigger = {
			army_tradition = 50
		}
		
		effect = {
			add_country_modifier = {
				name = vanrahar_trained_cubs
				duration = 9125 #25 years
			}
		}
	}
	
	vanrahar_3_expand_the_warrior_caste = {
		icon = mission_assemble_an_army
		ai = yes
		position = 3
		
		required_missions = {
			vanrahar_3_trials_of_strength
		}
		
		trigger = {
			manpower = 50
		}
		
		effect = {
			add_manpower = -40
			capital_scope = { area = { limit = { owned_by = ROOT } add_base_manpower = 4 } }
			add_government_reform = vanrahar_warrior_caste
		}
	}
	
	vanrahar_3_reinforce_human_servitude = {
		icon = mission_rice_field
		ai = yes
		position = 4
		
		required_missions = {
			vanrahar_3_expand_the_warrior_caste
			vanrahar_2_sieze_the_floating_cities
		}
		
		trigger = {
			num_of_owned_provinces_with = {
				value = 10
				OR = {
					culture_group = south_raheni
					culture_group = middle_raheni
					culture_group = upper_raheni
				}
				development = 9
			}
		}
		
		effect = {
			every_owned_province = {
				limit = {
					OR = {
						culture_group = south_raheni
						culture_group = middle_raheni
						culture_group = upper_raheni
					}
				}
				add_province_modifier = {
					name = vanrahar_subserviant_humans
					duration = 7300 #20 years
				}
			}
		}
	}
	
	vanrahar_3_establish_warrior_elite = {
		icon = mission_non-western_soldiers
		ai = yes
		position = 5
		
		required_missions = {
			vanrahar_3_reinforce_human_servitude
			vanrahar_4_dig_training_pits
		}
		
		trigger = {
			has_global_modifier_value = {
				which = discipline
				value = 0.10
			}
			army_size = 40
		}
		
		effect = {
			add_country_modifier = {
				name = vanrahar_warrior_elite
				duration = -1
			}
		}
	}
	
	vanrahar_3_stratocratic_rule = {
		icon = mission_protect_jain_communities
		ai = yes
		position = 6
		
		required_missions = {
			vanrahar_3_establish_warrior_elite
		}
		
		trigger = {
			mil = 5
			OR = {
				ruler_has_personality = strict_personality
				ruler_has_personality = martial_educator_personality
				ruler_has_personality = inspiring_leader_personality
				ruler_has_personality = tactical_genius_personality
			}
			adm_power = 100
			mil_power = 100
		}
		
		effect = {
			add_adm_power = -100
			add_mil_power = -100
			add_country_modifier = {
				name = vanrahar_stratocratic_rule
				duration = -1
			}
		}
	}
	
	vanrahar_3_the_tearing_claw = {
		icon = mission_defy_the_dragon
		ai = yes
		position = 7
		
		required_missions = {
			vanrahar_3_stratocratic_rule
			vanrahar_4_the_vanrahar_academy
		}
		
		trigger = {
			
		}
		
		effect = {
			define_ruler = {
				name = "Guryar"
				dynasty = "of the Tearing Claw"
				adm = 5
				dip = 4
				mil = 6
				fixed = yes
				age = 23
				claim = 100
				culture = royal_harimari
				religion = high_philosophy
			}
			add_ruler_personality = martial_educator_personality
			define_ruler_to_general = {
				fire = 4
				shock = 8
				manuever = 5
				siege = 3
			}
		}
	}
}


vanrahar_4 = {
	slot = 5
	generic = no
	ai = yes
	has_country_shield = yes
	
	potential = {
		OR = {
			tag = R41
			tag = R43
			tag = R45
			tag = R50
			tag = R77
		}
	}
	
	vanrahar_4_dig_training_pits = {
		icon = mission_colonial
		ai = yes
		position = 4
		
		required_missions = {
			vanrahar_3_expand_the_warrior_caste
		}
		
		trigger = {
			num_of_owned_provinces_with = {
				value = 10
				culture = royal_harimari
				has_manpower_building_trigger = yes
			}
		}
		
		effect = {
			add_country_modifier = {
				name = vanrahar_advanced_training
				duration = 9125
			}
		}
	}
	
	vanrahar_4_build_warrior_housing = {
		icon = mission_early_game_buildings
		ai = yes
		position = 5
		
		required_missions = {
			vanrahar_4_dig_training_pits
		}
		
		trigger = {
			num_of_owned_provinces_with = {
				value = 15
				culture = royal_harimari
				has_forcelimit_building_trigger = yes
			}
		}
		
		effect = {
			add_country_modifier = {
				name = vanrahar_growth_of_the_warrior_class
				duration = 7300
			}
		}
	}
	
	vanrahar_4_the_vanrahar_academy = {
		icon = mission_early_modern_university
		ai = yes
		position = 6
		
		required_missions = {
			vanrahar_4_build_warrior_housing
		}
		
		trigger = {
			mil_power = 100
			treasury = 250
			capital_scope = {
				culture = royal_harimari
				has_building = university
				has_building = training_fields
			}
		}
		
		effect = {
			add_mil_power = -100
			add_treasury = -250
			capital_scope = {
				add_province_modifier = {
					name = vanrahar_the_vanrahar_academy
					duration = -1
				}
			}
		}
	}
}
