
##BranchStart 0
A16_branch_1 = {
	slot = 1
	generic = no
	ai = yes
	potential = {
		tag = A16
		NOT = { map_setup = map_setup_random }
	}
	has_country_shield = yes
	
	##Mission Start
	A16_protect_toarnaire = {
		icon = mission_conquer_50_development
		required_missions = {
			
		}
		position = 2
		provinces_to_highlight = {
			province_id = 33
		}
		trigger = {
			33 = {
				fort_level = 2
			}
			owns_or_subject_of = 33
		}
		effect = {
			33 = {
				add_province_modifier = {
					name = wineport_toarnaire_defensiveness
					duration = 7300
				}
			}
		}
	}
	##Mission End
	##Mission Start
	A16_imperial_port = {
		icon = mission_develop_nevas_port
		required_missions = {
			A16_unite_league
		}
		position = 4
		provinces_to_highlight = {
			province_id = 33
		}
		trigger = {
			33 = {
				has_trade_building_trigger = yes
				has_dock_building_trigger = yes
			}
		}
		effect = {
			eastern_winebay_area = {
				limit = {
					NOT = { is_core = ROOT }
					NOT = { is_permanent_claim = ROOT }
				}
				add_permanent_claim = ROOT
			}
		}
	}
	##Mission End
	##Mission Start
	A16_trading_rights = {
		icon = mission_heart_of_the_hansa
		required_missions = {
			A16_imperial_port
		}
		position = 5
		provinces_to_highlight = {
			is_capital_of = emperor
		}
		trigger = {
			if = {
				limit = { hre_size = 1 }
				emperor = {
					has_opinion = {
						value = 100
						who = ROOT
					}
				}
				treasury = 100
			}
			else = {
				treasury = 100
			}
		}
		effect = {
			add_treasury = -100
			add_country_modifier = {
				name = wineport_imperial_trade_rights
				duration = 5475 # 15 Years
			}
		}
	}
	##Mission End
	##Mission Start
	A16_find_sponsors = {
		icon = mission_sweat_fealty
		required_missions = {
			A16_trading_rights
		}
		position = 6
		provinces_to_highlight = {
			##PROVINCESHIGHLIGHTCODE
		}
		trigger = {
			234 = {
				strongest_trade_power = {
					has_opinion = {
						value = 150
						who = ROOT
					}
				}
			}
		}
		effect = {
			add_treasury = 200
			14 = {
				add_permanent_claim = ROOT
			}
			hidden_effect = {
				234 = {
					strongest_trade_power = {
						save_global_event_target_as = wineport_sponsor
					}
				}
			}
		}
	}
	##Mission End
	##Mission Start
	A16_pop_cork = {
		icon = mission_conquer_riga
		required_missions = {
			A16_find_sponsors
		}
		position = 8
		provinces_to_highlight = {
			province_id = 14
			NOT = { owned_by = ROOT }
		}
		trigger = {
			owns_or_subject_of = 14
		}
		effect = {
			country_event = { id = flavour_wineport.1 }
			11 = {
				add_permanent_claim = ROOT
			}
		}
	}
	##Mission End
	##Mission Start
	A16_bloody_teeth = {
		icon = contracts_of_correspondence
		required_missions = {
			A16_pop_cork
		}
		position = 9
		provinces_to_highlight = {
			province_id = 11
			NOT = { owned_by = ROOT }
		}
		trigger = {
			owns_or_subject_of = 11
		}
		effect = {
			country_event = { id = flavour_wineport.2 }
		}
	}
	##Mission End
	##
	
}
##BranchEnd 0
##BranchStart 1
A16_branch_2 = {
	slot = 2
	generic = no
	ai = yes
	potential = {
		tag = A16
		NOT = { map_setup = map_setup_random }
	}
	has_country_shield = yes
	
	##Mission Start
	A16_seeking_support = {
		icon = mission_alliances
		required_missions = {
			
		}
		position = 1
		provinces_to_highlight = {
			##PROVINCESHIGHLIGHTCODE
		}
		trigger = {
			num_of_allies = 1
		}
		effect = {
			add_country_modifier = {
				name = wineport_to_let_them_survive
				duration = 9125 # 25 Years
			}
		}
	}
	##Mission End
	##Mission Start
	A16_recognition = {
		icon = friends_in_high_places
		required_missions = {
			A16_seeking_support
		}
		position = 2
		provinces_to_highlight = {
			##PROVINCESHIGHLIGHTCODE
		}
		trigger = {
			prestige = 20
		}
		effect = {
			add_country_modifier = {
				name = wineport_recognized
				duration = 9125 # 25 Years
			}
		}
	}
	##Mission End
	##Mission Start
	A16_toarnaire_ties = {
		icon = friends_in_high_places
		required_missions = {
			A16_unite_league
		}
		position = 4
		provinces_to_highlight = {
			province_id = 33
		}
		trigger = {
			owns = 33
		}
		effect = {
			33 = {
				add_province_modifier = {
					name = wineport_core_city
					duration = -1
				}
				add_province_modifier = {
					name = wineport_centralize
					duration = 7300
				}
				if = {
					limit = { province_has_center_of_trade_of_level = 2 }
					owner = { add_treasury = 200 }
				}
				else = {
					add_center_of_trade_level = 1
				}
			}
		}
	}
	##Mission End
	##Mission Start
	A16_roilsard = {
		icon = mission_feast
		required_missions = {
			A16_toarnaire_ties A16_imperial_port
		}
		position = 5
		provinces_to_highlight = {
			area = eastern_winebay_area
			NOT = { owned_by = ROOT }
		}
		trigger = {
			eastern_winebay_area = {
				type = all
				owned_by = ROOT
			}
		}
		effect = {
			pearlywine_area = {
				limit = {
					NOT = { is_core = ROOT }
					NOT = { is_permanent_claim = ROOT }
				}
				add_permanent_claim = ROOT
			}
		}
	}
	##Mission End
	##Mission Start
	A16_miltary_expert = {
		icon = consolidate_the_stadholders
		required_missions = {
			A16_roilsard A16_organize_watchers
		}
		position = 6
		provinces_to_highlight = {
			##PROVINCESHIGHLIGHTCODE
		}
		trigger = {
			eastern_winebay_area = {
				type = all
				NOT = { unrest = 0 }
			}
			mil_power = 200
		}
		effect = {
			add_mil_power = -200
			add_country_modifier = {
				name = wineport_roilsardi_expertise
				duration = -1
			}
		}
	}
	##Mission End
	##Mission Start
	A16_imperial_vintage = {
		icon = prosper_in_piedmont
		required_missions = {
			A16_miltary_expert
		}
		position = 7
		provinces_to_highlight = {
			OR = {
				province_id = 41
				province_id = 49
			}
			NOT = { owned_by = ROOT }
		}
		trigger = {
			owns_or_subject_of = 41
			owns_or_subject_of = 49
		}
		effect = {
			neckcliffe_area = {
				limit = {
					NOT = { is_core = ROOT }
					NOT = { is_permanent_claim = ROOT }
				}
				add_permanent_claim = ROOT
			}
			add_casus_belli = {
				target = A22
				type = cb_vassalize_mission
				months = 600
			}
		}
	}
	##Mission End
	##Mission Start
	A16_merchant_port = {
		icon = mission_guilds_of_barcelona
		required_missions = {
			A16_imperial_vintage A16_pop_cork
		}
		position = 9
		provinces_to_highlight = {
			area = neckcliffe_area
			NOT = {
				owner = {
					is_subject_of = ROOT
				}
				owner = {
					tag = ROOT
				}
			}
		}
		trigger = {
			neckcliffe_area = {
				type = all
				OR = {
					owner = {
						is_subject_of = ROOT
					}
					owner = {
						tag = ROOT
					}
				}
			}
		}
		effect = {
			add_prestige = 10
			A22 = {
				hidden_effect = { change_government = republic }
				add_government_reform = merchants_reform
				add_liberty_desire = -50
			}
		}
	}
	##Mission End
	##Mission Start
	A16_minar_colony = {
		icon = mission_hands_praying
		required_missions = {
			A16_minar_missions
		}
		position = 11
		provinces_to_highlight = {
			OR = {
				continent = north_america
				continent = south_america
			}
			OR = {
				trade_goods = wine
				is_city = no
			}
		}
		trigger = {
			any_subject_country = {
				is_colonial_nation_of = ROOT
				num_of_owned_provinces_with = {
					value = 1
					trade_goods = wine
					has_manufactory_trigger = yes
					base_production = 5
				}
			}
		}
		effect = {
			upgrade_wineport_wines = yes
			add_country_modifier = {
				name = wineport_tariffs
				duration = 18250
			}
		}
	}
	##Mission End
	##Mission Start
	A16_tears_of_blood = {
		icon = mission_burning_separation
		required_missions = {
			A16_minar_colony
		}
		position = 12
		provinces_to_highlight = {
			OR = {
				region = trollsbay_region
				region = sarda_region
			}
			OR = {
				trade_goods = wine
				is_city = no
			}
		}
		trigger = {
			calc_true_if = {
				amount = 3
				all_province = {
					OR = {
						region = trollsbay_region
						region = sarda_region
					}
					owner = {
						has_opinion = {
							value = 100
							who = ROOT
						}
					}
					trade_goods = wine
				}
			}
		}
		effect = {
			add_treasury = -1000
			upgrade_wineport_wines = yes
			random_province = {
				limit = {
					region = trollsbay_region
					owner = {
						has_opinion = {
							value = 100
							who = ROOT
						}
					}
					trade_goods = wine
					NOT = { has_building = farm_estate }
					NOT = { has_construction = farm_estate }
				}
				add_building_construction = {
					building = farm_estate
					cost = 0
					speed = 1
				}
			}
			random_province = {
				limit = {
					region = trollsbay_region
					owner = {
						has_opinion = {
							value = 100
							who = ROOT
						}
					}
					trade_goods = wine
					NOT = { has_building = farm_estate }
					NOT = { has_construction = farm_estate }
				}
				add_building_construction = {
					building = farm_estate
					cost = 0
					speed = 1
				}
			}
			random_province = {
				limit = {
					region = trollsbay_region
					owner = {
						has_opinion = {
							value = 100
							who = ROOT
						}
					}
					trade_goods = wine
					NOT = { has_building = farm_estate }
					NOT = { has_construction = farm_estate }
				}
				add_building_construction = {
					building = farm_estate
					cost = 0
					speed = 1
				}
			}
		}
	}
	##Mission End
	
}
##BranchEnd 1
##BranchStart 2
A16_branch_3 = {
	slot = 3
	generic = no
	ai = yes
	potential = {
		tag = A16
		NOT = { map_setup = map_setup_random }
	}
	has_country_shield = yes
	
	##Mission Start
	A16_build_bottlepoint = {
		icon = mission_hanseatic_city
		required_missions = {
			
		}
		position = 1
		provinces_to_highlight = {
			province_id = 86
		}
		trigger = {
			86 = {
				base_production = 6
			}
			owns = 86
		}
		effect = {
			86 = {
				add_province_modifier = {
					name = wineport_bottlepoint_production
					duration = 9125
				}
			}
		}
	}
	##Mission End
	##Mission Start
	A16_dwarven_craftsmen = {
		icon = mission_green_village
		required_missions = {
			A16_build_bottlepoint
		}
		position = 2
		provinces_to_highlight = {
			##PROVINCESHIGHLIGHTCODE
		}
		trigger = {
			treasury = 100
		}
		effect = {
			add_treasury = -100
			small_increase_of_dwarven_tolerance_effect = yes
			86 = {
				add_province_modifier = {
					name = wineport_core_city
					duration = -1
				}
			}
		}
	}
	##Mission End
	##Mission Start
	A16_unite_league = {
		icon = mission_establish_the_prikazy
		required_missions = {
			A16_protect_toarnaire A16_recognition A16_dwarven_craftsmen A16_buyout_minar A16_fifth_city
		}
		position = 3
		provinces_to_highlight = {
			##PROVINCESHIGHLIGHTCODE
		}
		trigger = {
			republican_tradition = 100
		}
		effect = {
			add_government_reform = wineport_merchants
		}
	}
	##Mission End
	##Mission Start
	A16_home_of_port = {
		icon = bohemian_crystal
		required_missions = {
			A16_unite_league
		}
		position = 4
		provinces_to_highlight = {
			OR = {
				province_id = 101
				province_id = 81
			}
			NOT = {
				AND = {
					has_production_building_trigger = yes
					base_production = 12
				}
			}
		}
		trigger = {
			101 = {
				has_production_building_trigger = yes
				base_production = 12
			}
			81 = {
				has_production_building_trigger = yes
				base_production = 12
			}
		}
		effect = {
			81 = {
				add_province_modifier = {
					name = wineport_core_city
					duration = -1
				}
			}
			101 = {
				add_province_modifier = {
					name = wineport_core_city
					duration = -1
				}
			}
		}
	}
	##Mission End
	##Mission Start
	A16_organize_watchers = {
		icon = the_italian_league
		required_missions = {
			A16_home_of_port
		}
		position = 5
		provinces_to_highlight = {
			##PROVINCESHIGHLIGHTCODE
		}
		trigger = {
			has_estate_privilege = estate_adventurers_organization_licensed_adventurers
		}
		effect = {
			set_country_flag = wineport_mercs_unlocked # Add Mercenaries
			custom_tooltip = unlock_mercenaries
		}
	}
	##Mission End
	##Mission Start
	A16_final_push = {
		icon = mission_cannons_firing
		required_missions = {
			A16_organize_watchers
		}
		position = 6
		provinces_to_highlight = {
			##PROVINCESHIGHLIGHTCODE
		}
		trigger = {
			army_size_percentage = 0.75
		}
		effect = {
			add_country_modifier = {
				name = roilsard_army_enthusiasm
				duration = 5475
			}
			upper_winebay_area = {
				limit = {
					NOT = { is_core = ROOT }
					NOT = { is_permanent_claim = ROOT }
				}
				add_permanent_claim = ROOT
			}
		}
	}
	##Mission End
	##Mission Start
	A16_free_coast = {
		icon = mission_unite_home_region
		required_missions = {
			A16_final_push
		}
		position = 7
		provinces_to_highlight = {
			area = upper_winebay_area
			NOT = { owned_by = ROOT }
		}
		trigger = {
			upper_winebay_area = {
				type = all
				owned_by = ROOT
			}
		}
		effect = {
			upper_bloodwine_area = {
				limit = {
					NOT = { is_core = ROOT }
					NOT = { is_permanent_claim = ROOT }
				}
				add_permanent_claim = ROOT
			}
		}
	}
	##Mission End
	##Mission Start
	A16_minar_missions = {
		icon = mission_early_game_buildings
		required_missions = {
			A16_world_of_winecraft
		}
		position = 10
		provinces_to_highlight = {
			province_id = 97
			NOT = { development = 25 }
			NOT = { has_tax_building_trigger = yes }
		}
		trigger = {
			97 = {
				development = 25
				has_tax_building_trigger = yes
			}
			any_known_country = {
				primary_culture = esmari
				has_opinion = {
					value = 50
					who = ROOT
				}
			}
		}
		effect = {
			upgrade_wineport_wines = yes
		}
	}
	##Mission End
	##Mission Start
	A16_sorncost_initiative = {
		icon = mission_have_manufactories
		required_missions = {
			A16_minar_missions
		}
		position = 11
		provinces_to_highlight = {
			area = sorncost_vines_area
			NOT = {
				AND = { 
					development = 25
					has_manufactory_trigger = yes
				}
			}
		}
		trigger = {
			sorncost_vines_area = {
				type = all
				development = 25
				has_manufactory_trigger = yes
				owned_by = ROOT
			}
		}
		effect = {
			upgrade_wineport_wines = yes
		}
	}
	##Mission End
	##Mission Start
	A16_pearlywine = {
		icon = mission_war_chest
		required_missions = {
			A16_sorncost_initiative
		}
		position = 12
		provinces_to_highlight = {
			OR = {
				province_id = 41
				province_id = 49
			}
			NOT = { development = 25 }
		}
		trigger = {
			if = {
				limit = { hre_size = 1 }
				emperor = {
					has_opinion = {
						who = ROOT
						value = 100
					}
				}
				41 = {
					development = 25
					owned_by = ROOT
				}
				49 = {
					development = 25
					owned_by = ROOT
				}
			}
			else = {
				41 = {
					development = 25
					owned_by = ROOT
				}
				49 = {
					development = 25
					owned_by = ROOT
				}
			}
		}
		effect = {
			upgrade_wineport_wines = yes
		}
	}
	##Mission End
	##Mission Start
	A16_roilsard_develop = {
		icon = mission_dominate_home_trade_node
		required_missions = {
			A16_pearlywine
		}
		position = 13
		provinces_to_highlight = {
			area = eastern_winebay_area
			NOT = {
				AND = {
					development = 25
					has_manufactory_trigger = yes
					has_production_building_trigger = yes
				}
			}
		}
		trigger = {
			eastern_winebay_area = {
				type = all
				development = 25
				has_manufactory_trigger = yes
				has_production_building_trigger = yes
			}
		}
		effect = {
			upgrade_wineport_wines = yes
		}
	}
	##Mission End
	##Mission Start
	A16_winetide = {
		icon = mission_the_grand_trunk_road_bng
		required_missions = {
			A16_roilsard_develop
		}
		position = 14
		provinces_to_highlight = {
			superregion = escann_superregion
			trade_goods = wine
		}
		trigger = {
			calc_true_if = {
				amount = 1
				escann_superregion = {
					trade_goods = wine
					owner = {
						has_opinion = {
							value = 200
							who = ROOT
						}
					}
				}
			}
			treasury = 300
		}
		effect = {
			add_treasury = -300
			random_province = {
				limit = {
					superregion = escann_superregion
					trade_goods = wine
					owner = {
						has_opinion = {
							value = 200
							who = ROOT
						}
					}
				}
				add_base_production = 2
			}
			
			random_province = {
				limit = {
					superregion = escann_superregion
					trade_goods = wine
					owner = {
						has_opinion = {
							value = 200
							who = ROOT
						}
					}
				}
				add_base_production = 2
			}
			upgrade_wineport_wines = yes
		}
	}
	##Mission End
	
}
##BranchEnd 2
##BranchStart 3
A16_branch_4 = {
	slot = 4
	generic = no
	ai = yes
	potential = {
		tag = A16
		NOT = { map_setup = map_setup_random }
	}
	has_country_shield = yes
	
	##Mission Start
	A16_protect_minar = {
		icon = mission_rb_control_electors
		required_missions = {
			
		}
		position = 1
		provinces_to_highlight = {
			is_capital_of = A10
		}
		trigger = {
			if = {
				limit = { exists = A10 }
				A10 = {
					OR = {
						guaranteed_by = ROOT
						is_in_trade_league_with = ROOT
					}
				}
			}
			else = {
				owns = 97
			}
		}
		effect = {
			add_country_modifier = {
				name = wineport_church_taxes
				duration = 3650
			}
		}
	}
	##Mission End
	##Mission Start
	A16_buyout_minar = {
		icon = mission_diplomacy_missive
		required_missions = {
			A16_protect_minar
		}
		position = 2
		provinces_to_highlight = {
			is_capital_of = A10
		}
		trigger = {
			if = {
				limit = { exists = A10 }
				A10 = {
					has_opinion = {
						who = ROOT
						value = 200
					}
					is_at_war = no
				}
				treasury = 150
			}
			else = {
				owns = 97
			}
		}
		effect = {
			lower_bloodwine_area = {
				limit = {
					NOT = { is_core = ROOT }
					NOT = { is_permanent_claim = ROOT }
				}
				add_permanent_claim = ROOT
			}
			if = {
				limit = { exists = A10 }
				A10 = { country_event = { id = flavour_wineport.3 days = 7 } } # Also flavour_wineport.4 (the response)
				add_treasury = -150
			}
		}
	}
	##Mission End
	##Mission Start
	A16_crush_collaborator = {
		icon = mission_subdue_rajputana
		required_missions = {
			A16_unite_league
		}
		position = 4
		provinces_to_highlight = {
			province_id = 84
		}
		trigger = {
			84 = {
				NOT = { unrest = 0 }
				NOT = { local_autonomy = 10 }
			}
		}
		effect = {
			southern_flats_area = {
				limit = {
					NOT = { is_core = ROOT }
					NOT = { is_permanent_claim = ROOT }
				}
				add_permanent_claim = ROOT
			}
			84 = {
				add_province_modifier = {
					name = wineport_core_city
					duration = -1
				}
			}
		}
	}
	##Mission End
	##Mission Start
	A16_renown = {
		icon = mission_rb_control_the_hansa
		required_missions = {
			A16_crush_collaborator
		}
		position = 5
		provinces_to_highlight = {
			province_id = 108
			NOT = {
				development = 30
				has_trade_building_trigger = yes
				owned_by = ROOT
			}
		}
		trigger = {
			108 = {
				NOT = { local_autonomy = 70 }
				development = 30
				has_trade_building_trigger = yes
				owned_by = ROOT
			}
		}
		effect = {
			108 = {
				add_local_autonomy = 30
				add_province_modifier = {
					name = wineport_rubenaire_trade
					duration = -1
				}
			}
		}
	}
	##Mission End
	##Mission Start
	A16_toward_sorncost = {
		icon = mission_rb_into_england
		required_missions = {
			A16_renown
		}
		position = 6
		provinces_to_highlight = {
			area = southern_flats_area
			NOT = { owned_by = ROOT }
		}
		trigger = {
			southern_flats_area = {
				owned_by = ROOT
			}
		}
		effect = {
			sornhills_area = {
				limit = {
					NOT = { is_core = ROOT }
					NOT = { is_permanent_claim = ROOT }
				}
				add_permanent_claim = ROOT
			}
			sorncost_vines_area = {
				limit = {
					NOT = { is_core = ROOT }
					NOT = { is_permanent_claim = ROOT }
				}
				add_permanent_claim = ROOT
			}
		}
	}
	##Mission End
	##Mission Start
	A16_conquer_sorncost = {
		icon = mission_pf_map_table
		required_missions = {
			A16_toward_sorncost
		}
		position = 7
		provinces_to_highlight = {
			OR = {
				AND = {
					province_id = 88
					NOT = { has_manufactory_trigger = yes }
					owned_by = ROOT
				}
				AND = {
					province_id = 101
					NOT = { has_building = university }
				}
			}
		}
		trigger = {
			owns_or_subject_of = 88
			88 = {
				has_manufactory_trigger = yes
			}
			101 = {
				has_building = university
			}
		}
		effect = {
			88 = {
				add_local_autonomy = 20
			}
			custom_tooltip = A16_conquer_sorncost_tt
			hidden_effect = {
				every_owned_province = {
					limit = { trade_goods = wine region = lencenor_region }
					add_base_production = 2
				}
			}
		}
	}
	##Mission End
	##Mission Start
	A16_wine_must_flow = {
		icon = imperial_navy
		required_missions = {
			A16_neglected_sister A16_free_coast A16_conquer_sorncost
		}
		position = 8
		provinces_to_highlight = {
			province_id = 67
			NOT = { owned_by = ROOT }
		}
		trigger = {
			67 = { 
				owned_by = ROOT
			}
		}
		effect = {
			101 = {
				add_province_modifier = {
					name = united_wine_lords
					duration = -1
				}
			}
			67 = {
				add_province_modifier = {
					name = united_wine_lords
					duration = -1
				}
			}
			108 = {
				add_province_modifier = {
					name = united_wine_lords
					duration = -1
				}
				hidden_effect = {
					remove_province_modifier = wineport_rubenaire_trade
				}
			}
			79 = {
				add_province_modifier = {
					name = united_wine_lords
					duration = -1
				}
				hidden_effect = {
					remove_province_modifier = wineport_eilisin_goods
				}
			}
			114 = {
				add_province_modifier = {
					name = united_wine_lords
					duration = -1
				}
				hidden_effect = {
					remove_province_modifier = wineport_madalaire_dev_cost
				}
			}
			add_country_modifier = {
				name = wineport_splendor
				duration = -1
			}
		}
	}
	##Mission End
	##Mission Start
	A16_world_of_winecraft = {
		icon = glory_to_turin
		required_missions = {
			A16_wine_must_flow
		}
		position = 9
		provinces_to_highlight = {
			##PROVINCESHIGHLIGHTCODE
		}
		trigger = {
			101 = {
				is_strongest_trade_power = ROOT
			}
		}
		effect = {
			add_country_modifier = {
				name = wineport_trade_diplomats
				duration = -1
			}
		}
	}
	##Mission End
	##Mission Start
	A16_winelords_three = {
		icon = hand-picked_bureaucrats
		required_missions = {
			A16_world_of_winecraft
		}
		position = 10
		provinces_to_highlight = {
			OR = {
				province_id = 79
				province_id = 108
				province_id = 114
			}
			NOT = { development = 35 }
		}
		trigger = {
			79 = { development = 35 }
			108 = { development = 35 }
			114 = { development = 35 }
		}
		effect = {
			upgrade_wineport_wines = yes
		}
	}
	##Mission End
	##Mission Start
	A16_redglade_fionca = {
		icon = mission_empire
		required_missions = {
			A16_winelords_three
		}
		position = 11
		provinces_to_highlight = {
			province_id = 77
		}
		trigger = {
			77 = {
				owner = {
					OR = {
						has_opinion = {
							value = 150
							who = ROOT
						}
						tag = ROOT
					}
				}
			}
		}
		effect = {
			upgrade_wineport_wines = yes
		}
	}
	##Mission End
	##Mission Start
	A16_secrets_red_lineage = {
		icon = mission_invade_arakan
		required_missions = {
			A16_redglade_fionca
		}
		position = 12
		provinces_to_highlight = {
			province_id = 67
		}
		trigger = {
			treasury = 300
			67 = {
				NOT = { unrest = 0 }
				infantry_in_province = 3
			}
		}
		effect = {
			country_event = { id = flavour_wineport.5 }
		}
	}
	##Mission End
	##Mission Start
	A16_secure_varilleni_wines = {
		icon = mission_establish_the_prikazy
		required_missions = {
			A16_secrets_red_lineage
		}
		position = 14
		provinces_to_highlight = {
			province_id = 353
		}
		trigger = {
			diplomatic_reputation = 2
			estate_loyalty = {
				estate = estate_mages
				loyalty = 60
			}
			353 = {
				owner = {
					has_opinion = {
						who = ROOT
						value = 50
					}
				}
			}
		}
		effect = {
			upgrade_wineport_wines = yes
		}
	}
	##Mission End
	##
	
	
}
##BranchEnd 3
##BranchStart 4
A16_branch_5 = {
	slot = 5
	generic = no
	ai = yes
	potential = {
		tag = A16
		NOT = { map_setup = map_setup_random }
	}
	has_country_shield = yes
	
	##Mission Start
	A16_hired_veterans = {
		icon = mission_assemble_an_army
		required_missions = {
			
		}
		position = 1
		provinces_to_highlight = {
			##PROVINCESHIGHLIGHTCODE
		}
		trigger = {
			dip_power = 100
		}
		effect = {
			add_dip_power = -100
			add_country_modifier = {
				name = wineport_mecenaries
				duration = 9125
			}
		}
	}
	##Mission End
	##Mission Start
	A16_fifth_city = {
		icon = mission_establish_high_seas_navy
		required_missions = {
			A16_hired_veterans
		}
		position = 2
		provinces_to_highlight = {
			province_id = 84
		}
		trigger = {
			84 = {
				owned_by = ROOT
			}
		}
		effect = {
			ROOT = {
				light_ship = 84
			}
			ROOT = {
				light_ship = 84
			}
			ROOT = {
				light_ship = 84
			}
			ROOT = {
				light_ship = 84
			}
			ROOT = {
				light_ship = 84
			}
		}
	}
	##Mission End
	##Mission Start
	A16_expand_league = {
		icon = mission_gwalior_and_rathambore
		required_missions = {
			A16_unite_league
		}
		position = 4
		provinces_to_highlight = {
			OR = {
				province_id = 79
				province_id = 80
			}
		}
		trigger = {
			owns = 79
			owns = 80
		}
		effect = {
			add_country_modifier = {
				name = wineport_more_merchants
				duration = 3650
			}
		}
	}
	##Mission End
	##Mission Start
	A16_integrate_eilisin = {
		icon = mission_have_two_subjects
		required_missions = {
			A16_crush_collaborator A16_expand_league
		}
		position = 5
		provinces_to_highlight = {
			province_id = 79
		}
		trigger = {
			79 = {
				NOT = { unrest = 0 }
				NOT = { local_autonomy = 25 }
				base_production = 10
				owned_by = ROOT
			}
		}
		effect = {
			79 = {
				add_local_autonomy = 30
				add_province_modifier = {
					name = wineport_eilisin_goods
					duration = -1
				}
			}
		}
	}
	##Mission End
	##Mission Start
	A16_neglected_sister = {
		icon = mission_chinese_general_riding
		required_missions = {
			A16_integrate_eilisin
		}
		position = 7
		provinces_to_highlight = {
			province_id = 114
		}
		trigger = {
			114 = {
				NOT = { local_autonomy = 70 }
				owned_by = ROOT
				has_production_building_trigger = yes
				base_production = 10
			}
		}
		effect = {
			114 = {
				add_local_autonomy = 30
				add_province_modifier = {
					name = wineport_madalaire_dev_cost
					duration = -1
				}
			}
		}
	}
	##Mission End
	##Mission Start
	A16_bridgewine_trade = {
		icon = mission_early_game_buildings
		required_missions = {
			A16_world_of_winecraft
		}
		position = 10
		provinces_to_highlight = {
			province_id = 569
		}
		trigger = {
			569 = {
				owner = {
					OR = {
						tag = ROOT
						is_in_trade_league_with = ROOT
						alliance_with = ROOT
					}
				}
			}
		}
		effect = {
			upgrade_wineport_wines = yes
		}
	}
	##Mission End
	##Mission Start
	A16_busilari_fortified = {
		icon = mission_junk_boat
		required_missions = {
			A16_bridgewine_trade
		}
		position = 11
		provinces_to_highlight = {
			province_id = 380
		}
		trigger = {
			trader = 3
			380 = {
				owner = {
					OR = {
						tag = ROOT
						has_opinion = {
							who = ROOT
							value = 100
						}
					}
				}
			}
		}
		effect = {
			upgrade_wineport_wines = yes
		}
	}
	##Mission End
	##Mission Start
	A16_crimson_red = {
		icon = mission_construct_a_corsair_fleet
		required_missions = {
			A16_busilari_fortified
		}
		position = 12
		provinces_to_highlight = {
			province_id = 522
		}
		trigger = {
			522 = {
				owner = {
					has_opinion = {
						value = 100
						who = ROOT
					}
				}
			}
			dip = 6
			dip_power = 50
		}
		effect = {
			add_dip_power = -50
			upgrade_wineport_wines = yes
		}
	}
	##Mission Start
	A16_liquid_sunlight = {
		icon = mission_construct_a_corsair_fleet
		required_missions = {
			A16_crimson_red
		}
		position = 13
		provinces_to_highlight = {
			superregion = bulwar_superregion
			culture = sun_elf
			trade_goods = wine
		}
		trigger = {
			bulwar_superregion = {
				trade_goods = wine
				culture = sun_elf
				owner = {
					has_opinion = {
						value = 100
						who = ROOT
					}
				}
			}
			treasury = 1000
		}
		effect = {
			add_treasury = -1000
			country_event = { id = flavour_wineport.7 }
			hidden_effect = {
				bulwar_superregion = {
					limit = { 
						trade_goods = wine
						owner = {
							has_opinion = {
								value = 100
								who = ROOT
							}
						}
					}
					owner = { save_global_event_target_as = wineport_bulwar_contact }
				}
			}
		}
	}
	##Mission End
	##
	##
	##Mission Start
	A16_illusive_chylys = {
		icon = mission_a_million_rice_fields
		required_missions = {
			A16_liquid_sunlight
		}
		position = 14
		provinces_to_highlight = {
			superregion = deepwoods_superregion
			trade_goods = wine
		}
		trigger = {
			deepwoods_superregion = {
				trade_goods = wine
				owner = {
					has_spy_network_from = {
						who = ROOT
						value = 50
					}
				}
			}
			manpower = 10
		}
		effect = {
			random_province = {
				limit = { trade_goods = wine superregion = deepwoods_superregion }
				owner = {
					add_spy_network_from = {
						who = ROOT
						value = -50
					}
				}
			}
			add_manpower = -10
			upgrade_wineport_wines = yes
		}
	}
	##Mission End
	##
	
}
##BranchEnd 4
