
namespace = magisterium

# Expedition is Ready
country_event = {
	id = magisterium.1
	title = magisterium.1.t
	desc = magisterium.1.d
	picture = ARTWORK_eventPicture
	
	is_triggered_only = yes
	
	trigger = {
		always = yes
		
	}
	
	option = {
        name = magisterium.1.a
        ai_chance = { factor = 100 }
		add_country_modifier = {
			name = expedition_ready
			duration = -1
		}
	}
}

# Expedition chain of event
country_event = {
	id = magisterium.2
	title = magisterium.2.t
	desc = magisterium.2.d
	picture = ARTWORK_eventPicture
	
	is_triggered_only = yes
	
	trigger = {
		always = yes
	}
	
	option = {
        name = magisterium.2.a
        ai_chance = { factor = 50 }
		country_event = {id = magisterium.3 days = 600 random = 300}
	}
	
	option = {
        name = magisterium.2.b
        ai_chance = { factor = 50 }
		country_event = {id = magisterium.5 days = 600 random = 300}
	}
}

### First Branch Magic Door -> Mage Tomb
country_event = {
	id = magisterium.3
	title = magisterium.3.t
	desc = magisterium.3.d
	picture = ARTWORK_eventPicture
	
	is_triggered_only = yes
	
	trigger = {
		always = yes
	}
	
	option = {
        name = magisterium.3.a
        ai_chance = { factor = 100 }
		country_event = {id = magisterium.4 days = 600 random = 300}
	}
}

country_event = {
	id = magisterium.4
	title = magisterium.4.t
	desc = magisterium.4.d
	picture = ARTWORK_eventPicture
	
	is_triggered_only = yes
	
	trigger = {
		always = yes
	}
	
	option = {
        name = magisterium.4.a
        ai_chance = { factor = 100 }
		3 = {
			add_base_tax = 5
			add_base_production = 3
			change_trade_goods = precursor_relics
			add_permanent_province_modifier = {
				name = mage_stash
				duration = 36500
			}
		}
		remove_country_modifier = expedition_ready
	}
}

### Second Branch Swamp -> Laboratory lab
country_event = {
	id = magisterium.5
	title = magisterium.5.t
	desc = magisterium.5.d
	picture = ARTWORK_eventPicture
	
	is_triggered_only = yes
	
	trigger = {
		always = yes
	}
	
	option = {
        name = magisterium.5.a
        ai_chance = { factor = 100 }
		country_event = {id = magisterium.6 days = 600 random = 300}
	}
}

country_event = {
	id = magisterium.6
	title = magisterium.6.t
	desc = magisterium.6.d
	picture = ARTWORK_eventPicture
	
	is_triggered_only = yes
	
	trigger = {
		always = yes
	}

	option = {
        name = magisterium.6.a
        ai_chance = { factor = 100 }
		3 = {
			add_base_production = 4
			add_base_manpower = 4
			change_trade_goods = precursor_relics
			add_permanent_province_modifier = {
				name = mag_big_laboratory
				duration = 36500
			}
		}
		remove_country_modifier = expedition_ready
	}
}

### Skyfall Ritual

country_event = {
	id = magisterium.7
	title = magisterium.7.t
	desc = magisterium.7.d
	picture = ARTWORK_eventPicture
	
	is_triggered_only = yes
	
	trigger = {
		always = yes
	}
	
	option = {
        name = magisterium.7.a
        ai_chance = { factor = 100 }
		524 = {
			change_trade_goods = damestear
			add_permanent_province_modifier = {
				name = skyfall_damestear
				duration = -1
			}
			add_base_manpower = -6
			add_base_production = -6
			add_base_tax = -6
			add_devastation = 50
		}
	}
}
# Create Mage Group
country_event = {
	id = magisterium.8
	title = magisterium.8.t
	desc = magisterium.8.d
	picture = ARTWORK_eventPicture
	
	is_triggered_only = yes
	
	trigger = {
		always = yes
	}
	
	option = {
        name = magisterium.8.a
        ai_chance = { factor = 100 }
		country_event = {id = magisterium.9 days = 1000 random = 1000}
	}
}

# They are created
country_event = {
	id = magisterium.9
	title = magisterium.9.t
	desc = magisterium.9.d
	picture = ARTWORK_eventPicture
	
	is_triggered_only = yes
	
	trigger = {
		always = yes
	}
	
	option = {
        name = magisterium.9.a
        ai_chance = { factor = 100 }
		set_country_flag = first_step
		clr_country_flag = mag_step
	}
}

#Send mage group in expedition
country_event = {
	id = magisterium.10
	title = magisterium.10.t
	desc = magisterium.10.d
	picture = ARTWORK_eventPicture
	
	is_triggered_only = yes
	
	trigger = {
		always = yes
	}
	
	option = {
        name = magisterium.10.a
        ai_chance = { factor = 100 }
		country_event = {id = magisterium.11 days = 1000 random = 1000}
	}
}

#They return
country_event = {
	id = magisterium.11
	title = magisterium.11.t
	desc = magisterium.11.d
	picture = ARTWORK_eventPicture
	
	is_triggered_only = yes
	
	trigger = {
		always = yes
	}
	
	option = {
        name = magisterium.11.a
        ai_chance = { factor = 100 }
		set_country_flag = second_step
		clr_country_flag = mag_step
	}
}

#Prepare Skyfall Ritual
country_event = {
	id = magisterium.12
	title = magisterium.12.t
	desc = magisterium.12.d
	picture = ARTWORK_eventPicture
	
	is_triggered_only = yes
	
	trigger = {
		always = yes
	}
	
	option = {
        name = magisterium.12.a
        ai_chance = { factor = 100 }
		country_event = {id = magisterium.13 days = 1000 random = 1000}
	}
}

#Ritual is done
country_event = {
	id = magisterium.13
	title = magisterium.13.t
	desc = magisterium.13.d
	picture = ARTWORK_eventPicture
	
	is_triggered_only = yes
	
	trigger = {
		always = yes
	}
	
	option = {
        name = magisterium.13.a
        ai_chance = { factor = 100 }
		set_country_flag = third_step
		clr_country_flag = mag_step
	}
}


## AI help
country_event = {
	id = magisterium.14
	title = magisterium.14.t
	desc = magisterium.14.d
	picture = ARTWORK_eventPicture
	
	hidden = yes
	
	mean_time_to_happen = {
		years = 3
	}
	trigger = {
		ai = yes
		tag = A85
		owns_core_province = 524
		524 = {
			NOT = {
				OR = {
					development = 40
				}
			}
		}
	}
	
	option = {
        name = magisterium.14.a
        ai_chance = { factor = 100 }
		524 = {
			random_list = {
				33 = {
					add_base_manpower = 1
				}
				33 = {
					add_base_production = 1
				}
				33 = {
					add_base_tax = 1
				}
			}
		}
	}
}

#Sack of Aldresia
country_event = {
	id = magisterium.15
	title = magisterium.15.t
	desc = magisterium.15.d
	picture = ARTWORK_eventPicture
	
	is_triggered_only = yes
	
	trigger = {
		always = yes
	}
	
	option = {
        name = magisterium.15.a
        ai_chance = { factor = 100 }
		423 = {
			add_base_manpower = -3
			add_base_production = -3
			add_base_tax = -3
			add_devastation = 25
		}
		3 = {
			add_base_manpower = 3
			add_base_production = 3
			add_base_tax = 3
			add_prosperity = 25
		}
	}
}

#Anbenncoast dilema
country_event = {
	id = magisterium.16
	title = magisterium.16.t
	desc = magisterium.16.d
	picture = ARTWORK_eventPicture
	
	is_triggered_only = yes
	
	trigger = {
		always = yes
	}
	
	option = {
		name = magisterium.16.a
        ai_chance = { factor = 100 }
		A38 = {country_event = {id = magisterium.17} }
	}
}

#Anbenncoast receive the ultimatum
country_event = {
	id = magisterium.17
	title = magisterium.17.t
	desc = magisterium.17.d
	picture = ARTWORK_eventPicture
	
	is_triggered_only = yes
	
	trigger = {
		always = yes
	}
	
	#they accept and become vassal
	option = {
		name = magisterium.16.a
        ai_chance = {
			factor = 65
			
			modifier = {
				factor = 1.2
				has_opinion = {
					WHO = A85
					value = 130
				}
			}
			modifier = {
				factor = 1.2
				has_opinion = {
					WHO = A85
					value = 150
				}
			}
			modifier = {
				factor = 1.2
				has_opinion = {
					WHO = A85
					value = 180
				}
			}
			modifier = {
				factor = 1.2
				has_opinion = {
					WHO = A85
					value = 200
				}
			}
			
			modifier = {
				factor = 1.5
				A85 = {
					alliance_with = A38
				}
			}
			modifier = {
				factor = 1.1
				
				guaranteed_by = A85
			}
		}
		A85 = {
			country_event = {id = magisterium.18 days = 30}
		}
	}
	#They refuse
	option = {
		name = magisterium.16.a
        ai_chance = {
			factor = 35
		}
		A85 = {
			country_event = {id = magisterium.19 days = 30}
		}
	}
}

country_event = {
	id = magisterium.18
	title = magisterium.18.t
	desc = magisterium.18.d
	picture = ARTWORK_eventPicture
	
	is_triggered_only = yes
	
	trigger = {
		always = yes
	}
	
	option = {
		name = magisterium.18.a
        ai_chance = { factor = 100 }
		vassalize = A38
		add_prestige = 15
	}
}

country_event = {
	id = magisterium.19
	title = magisterium.19.t
	desc = magisterium.19.d
	picture = ARTWORK_eventPicture
	
	is_triggered_only = yes
	
	trigger = {
		always = yes
	}
	
	option = {
		name = magisterium.18.a
        ai_chance = { factor = 100 }
		add_casus_belli = {
			target = A38
			type = cb_vassalize_mission
			months = 480
		}
	}
}

#Excavate Gems
country_event = {
	id = magisterium.20
	title = magisterium.20.t
	desc = magisterium.20.d
	picture = ARTWORK_eventPicture
	
	is_triggered_only = yes
	
	trigger = {
		always = yes
	}
	
	option = {
		name = magisterium.20.a
        ai_chance = { factor = 100 }
		4 = {
			change_trade_goods = gems
			add_base_production = 4
			add_base_manpower = -2
		}
	}
}